<?xml version="1.0" encoding="UTF-8"?>
<glyph name="eight" format="1">
  <advance width="536"/>
  <unicode hex="0038"/>
  <outline>
    <contour>
      <point x="268" y="364" type="curve" smooth="yes"/>
      <point x="184" y="364"/>
      <point x="139" y="292"/>
      <point x="139" y="216" type="curve" smooth="yes"/>
      <point x="139" y="144"/>
      <point x="182" y="60"/>
      <point x="268" y="60" type="curve" smooth="yes"/>
      <point x="354" y="60"/>
      <point x="397" y="144"/>
      <point x="397" y="216" type="curve" smooth="yes"/>
      <point x="397" y="292"/>
      <point x="352" y="364"/>
    </contour>
    <contour>
      <point x="268" y="-6" type="curve" smooth="yes"/>
      <point x="134" y="-6"/>
      <point x="61" y="97"/>
      <point x="61" y="210" type="curve" smooth="yes"/>
      <point x="61" y="299"/>
      <point x="107" y="373"/>
      <point x="183" y="393" type="curve"/>
      <point x="183" y="395" type="line"/>
      <point x="129" y="428"/>
      <point x="89" y="484"/>
      <point x="89" y="553" type="curve" smooth="yes"/>
      <point x="89" y="639"/>
      <point x="164" y="718"/>
      <point x="268" y="718" type="curve" smooth="yes"/>
      <point x="372" y="718"/>
      <point x="447" y="639"/>
      <point x="447" y="553" type="curve" smooth="yes"/>
      <point x="447" y="484"/>
      <point x="407" y="428"/>
      <point x="353" y="395" type="curve"/>
      <point x="353" y="393" type="line"/>
      <point x="429" y="373"/>
      <point x="475" y="299"/>
      <point x="475" y="210" type="curve" smooth="yes"/>
      <point x="475" y="97"/>
      <point x="402" y="-6"/>
    </contour>
    <contour>
      <point x="268" y="430" type="curve" smooth="yes"/>
      <point x="341" y="430"/>
      <point x="375" y="481"/>
      <point x="375" y="544" type="curve" smooth="yes"/>
      <point x="375" y="605"/>
      <point x="330" y="652"/>
      <point x="268" y="652" type="curve" smooth="yes"/>
      <point x="203" y="652"/>
      <point x="161" y="605"/>
      <point x="161" y="546" type="curve" smooth="yes"/>
      <point x="161" y="481"/>
      <point x="195" y="430"/>
    </contour>
  </outline>
  <lib>
    <dict>
      <key>com.fontlab.hintData</key>
      <dict>
        <key>hhints</key>
        <array>
          <dict>
            <key>position</key>
            <integer>-6</integer>
            <key>width</key>
            <integer>66</integer>
          </dict>
          <dict>
            <key>position</key>
            <integer>364</integer>
            <key>width</key>
            <integer>66</integer>
          </dict>
          <dict>
            <key>position</key>
            <integer>652</integer>
            <key>width</key>
            <integer>66</integer>
          </dict>
        </array>
        <key>vhints</key>
        <array>
          <dict>
            <key>position</key>
            <integer>61</integer>
            <key>width</key>
            <integer>78</integer>
          </dict>
          <dict>
            <key>position</key>
            <integer>89</integer>
            <key>width</key>
            <integer>72</integer>
          </dict>
          <dict>
            <key>position</key>
            <integer>375</integer>
            <key>width</key>
            <integer>72</integer>
          </dict>
          <dict>
            <key>position</key>
            <integer>397</integer>
            <key>width</key>
            <integer>78</integer>
          </dict>
        </array>
      </dict>
    </dict>
  </lib>
</glyph>
