<?xml version="1.0" encoding="UTF-8"?>
<glyph name="J" format="1">
  <advance width="352"/>
  <unicode hex="004A"/>
  <outline>
    <contour>
      <point x="286" y="672" type="curve" smooth="yes"/>
      <point x="286" y="164" type="line" smooth="yes"/>
      <point x="286" y="60"/>
      <point x="225" y="-6"/>
      <point x="129" y="-6" type="curve" smooth="yes"/>
      <point x="45" y="-6"/>
      <point x="-17" y="38"/>
      <point x="-17" y="65" type="curve" smooth="yes"/>
      <point x="-17" y="85"/>
      <point x="-5" y="97"/>
      <point x="11" y="97" type="curve" smooth="yes"/>
      <point x="37" y="97"/>
      <point x="52" y="54"/>
      <point x="126" y="54" type="curve" smooth="yes"/>
      <point x="197" y="54"/>
      <point x="214" y="103"/>
      <point x="214" y="164" type="curve" smooth="yes"/>
      <point x="214" y="672" type="line" smooth="yes"/>
      <point x="214" y="702"/>
      <point x="227" y="718"/>
      <point x="250" y="718" type="curve" smooth="yes"/>
      <point x="273" y="718"/>
      <point x="286" y="702"/>
    </contour>
  </outline>
  <lib>
    <dict>
      <key>com.fontlab.hintData</key>
      <dict>
        <key>hhints</key>
        <array>
          <dict>
            <key>position</key>
            <integer>-6</integer>
            <key>width</key>
            <integer>60</integer>
          </dict>
          <dict>
            <key>position</key>
            <integer>698</integer>
            <key>width</key>
            <integer>20</integer>
          </dict>
        </array>
        <key>vhints</key>
        <array>
          <dict>
            <key>position</key>
            <integer>214</integer>
            <key>width</key>
            <integer>72</integer>
          </dict>
        </array>
      </dict>
    </dict>
  </lib>
</glyph>
