<?xml version="1.0" encoding="UTF-8"?>
<glyph name="ordfeminine" format="1">
  <advance width="361"/>
  <unicode hex="00AA"/>
  <outline>
    <contour>
      <point x="322" y="690" type="curve" smooth="yes"/>
      <point x="322" y="419" type="line" smooth="yes"/>
      <point x="322" y="403"/>
      <point x="310" y="391"/>
      <point x="292" y="391" type="curve" smooth="yes"/>
      <point x="273" y="391"/>
      <point x="262" y="403"/>
      <point x="262" y="419" type="curve" smooth="yes"/>
      <point x="262" y="442" type="line"/>
      <point x="260" y="442" type="line"/>
      <point x="242" y="410"/>
      <point x="206" y="391"/>
      <point x="167" y="391" type="curve" smooth="yes"/>
      <point x="77" y="391"/>
      <point x="22" y="473"/>
      <point x="22" y="554" type="curve" smooth="yes"/>
      <point x="22" y="636"/>
      <point x="77" y="718"/>
      <point x="167" y="718" type="curve" smooth="yes"/>
      <point x="206" y="718"/>
      <point x="238" y="704"/>
      <point x="260" y="675" type="curve"/>
      <point x="262" y="675" type="line"/>
      <point x="262" y="690" type="line" smooth="yes"/>
      <point x="262" y="706"/>
      <point x="273" y="718"/>
      <point x="292" y="718" type="curve" smooth="yes"/>
      <point x="310" y="718"/>
      <point x="322" y="706"/>
    </contour>
    <contour>
      <point x="262" y="555" type="curve" smooth="yes"/>
      <point x="262" y="624"/>
      <point x="237" y="670"/>
      <point x="172" y="670" type="curve" smooth="yes"/>
      <point x="111" y="670"/>
      <point x="88" y="608"/>
      <point x="88" y="555" type="curve" smooth="yes"/>
      <point x="88" y="502"/>
      <point x="113" y="439"/>
      <point x="172" y="439" type="curve" smooth="yes"/>
      <point x="237" y="439"/>
      <point x="262" y="485"/>
    </contour>
  </outline>
  <lib>
    <dict>
      <key>com.fontlab.hintData</key>
      <dict>
        <key>hhints</key>
        <array>
          <dict>
            <key>position</key>
            <integer>391</integer>
            <key>width</key>
            <integer>48</integer>
          </dict>
          <dict>
            <key>position</key>
            <integer>670</integer>
            <key>width</key>
            <integer>48</integer>
          </dict>
        </array>
        <key>vhints</key>
        <array>
          <dict>
            <key>position</key>
            <integer>22</integer>
            <key>width</key>
            <integer>66</integer>
          </dict>
          <dict>
            <key>position</key>
            <integer>262</integer>
            <key>width</key>
            <integer>60</integer>
          </dict>
        </array>
      </dict>
    </dict>
  </lib>
</glyph>
