<?xml version="1.0" encoding="UTF-8"?>
<glyph name="quoteleft" format="1">
  <advance width="186"/>
  <unicode hex="2018"/>
  <outline>
    <contour>
      <point x="34" y="571" type="curve" smooth="yes"/>
      <point x="91" y="697" type="line" smooth="yes"/>
      <point x="98" y="712"/>
      <point x="109" y="718"/>
      <point x="125" y="718" type="curve" smooth="yes"/>
      <point x="148" y="718"/>
      <point x="160" y="701"/>
      <point x="160" y="687" type="curve" smooth="yes"/>
      <point x="160" y="678"/>
      <point x="157" y="668"/>
      <point x="152" y="657" type="curve" smooth="yes"/>
      <point x="95" y="531" type="line" smooth="yes"/>
      <point x="88" y="516"/>
      <point x="77" y="510"/>
      <point x="61" y="510" type="curve" smooth="yes"/>
      <point x="38" y="510"/>
      <point x="26" y="527"/>
      <point x="26" y="541" type="curve" smooth="yes"/>
      <point x="26" y="550"/>
      <point x="29" y="560"/>
    </contour>
  </outline>
  <lib>
    <dict>
      <key>com.fontlab.hintData</key>
      <dict>
        <key>hhints</key>
        <array>
          <dict>
            <key>position</key>
            <integer>698</integer>
            <key>width</key>
            <integer>20</integer>
          </dict>
        </array>
        <key>vhints</key>
        <array>
          <dict>
            <key>position</key>
            <integer>26</integer>
            <key>width</key>
            <integer>134</integer>
          </dict>
        </array>
      </dict>
    </dict>
  </lib>
</glyph>
