<?xml version="1.0" encoding="UTF-8"?>
<glyph name="s" format="1">
  <advance width="444"/>
  <unicode hex="0073"/>
  <outline>
    <contour>
      <point x="211" y="538" type="curve" smooth="yes"/>
      <point x="315" y="538"/>
      <point x="401" y="494"/>
      <point x="399" y="456" type="curve" smooth="yes"/>
      <point x="399" y="440"/>
      <point x="393" y="421"/>
      <point x="363" y="421" type="curve" smooth="yes"/>
      <point x="335" y="421"/>
      <point x="298" y="478"/>
      <point x="226" y="478" type="curve" smooth="yes"/>
      <point x="176" y="478"/>
      <point x="122" y="454"/>
      <point x="122" y="403" type="curve" smooth="yes"/>
      <point x="122" y="379"/>
      <point x="135" y="354"/>
      <point x="171" y="340" type="curve" smooth="yes"/>
      <point x="280" y="296" type="line" smooth="yes"/>
      <point x="352" y="267"/>
      <point x="413" y="232"/>
      <point x="413" y="148" type="curve" smooth="yes"/>
      <point x="413" y="54"/>
      <point x="329" y="-6"/>
      <point x="217" y="-6" type="curve" smooth="yes"/>
      <point x="101" y="-6"/>
      <point x="25" y="61"/>
      <point x="25" y="95" type="curve" smooth="yes"/>
      <point x="25" y="106"/>
      <point x="41" y="130"/>
      <point x="59" y="130" type="curve" smooth="yes"/>
      <point x="93" y="130"/>
      <point x="126" y="54"/>
      <point x="220" y="54" type="curve" smooth="yes"/>
      <point x="289" y="54"/>
      <point x="335" y="95"/>
      <point x="335" y="145" type="curve" smooth="yes"/>
      <point x="335" y="192"/>
      <point x="300" y="211"/>
      <point x="261" y="227" type="curve" smooth="yes"/>
      <point x="137" y="278" type="line" smooth="yes"/>
      <point x="83" y="300"/>
      <point x="44" y="332"/>
      <point x="44" y="398" type="curve" smooth="yes"/>
      <point x="44" y="485"/>
      <point x="130" y="538"/>
    </contour>
  </outline>
  <lib>
    <dict>
      <key>com.fontlab.hintData</key>
      <dict>
        <key>hhints</key>
        <array>
          <dict>
            <key>position</key>
            <integer>-6</integer>
            <key>width</key>
            <integer>60</integer>
          </dict>
          <dict>
            <key>position</key>
            <integer>478</integer>
            <key>width</key>
            <integer>60</integer>
          </dict>
        </array>
        <key>vhints</key>
        <array>
          <dict>
            <key>position</key>
            <integer>44</integer>
            <key>width</key>
            <integer>78</integer>
          </dict>
          <dict>
            <key>position</key>
            <integer>335</integer>
            <key>width</key>
            <integer>78</integer>
          </dict>
        </array>
      </dict>
    </dict>
  </lib>
</glyph>
