<?xml version="1.0" standalone="no"?>
<!DOCTYPE svg PUBLIC "-//W3C//DTD SVG 1.1//EN" "http://www.w3.org/Graphics/SVG/1.1/DTD/svg11.dtd">
<svg xmlns="http://www.w3.org/2000/svg"><defs><font id="SVG Font" horiz-adv-x="512"><font-face units-per-em="512" ascent="448" descent="-64" x-height="240" cap-height="480"/><missing-glyph horiz-adv-x="512"/><glyph unicode="&#xE001;" glyph-name="001-next" horiz-adv-x="512" d="M504.15566110005 184.16350543895H7.844338899954c-4.3300750727746 0 -7.844338899954 3.5142638271794 -7.844338899954 7.844338899954s3.5142638271794 7.844338899954 7.844338899954 7.844338899954h496.31132220009c4.3300750727746 0 7.844338899954 -3.5142638271794 7.844338899954 -7.844338899954 S508.48573617282 184.16350543895 504.15566110005 184.16350543895zM307.4667075226 -12.509759460702c-2.0081507583882 0 -4.0163015167765 0.7687452121955 -5.5537919411675 2.2905469587866c-3.0592921709821 3.0592921709821 -3.0592921709821 8.0326030335529 0 11.091895204535l191.15085031408 191.15085031408L301.91291558143 383.11162861958 c-3.0592921709821 3.0592921709821 -3.0592921709821 8.0326030335529 0 11.091895204535s8.0326030335529 3.0592921709821 11.091895204535 0l196.68895357745 -196.62619886625c1.4747357131914 -1.4747357131914 2.2905469587866 -3.4671977937797 2.2905469587866 -5.5537919411675 s-0.83149992339513 -4.0790562279761 -2.2905469587866 -5.5537919411675L313.00481078597 -10.203523824115C311.48300903937 -11.741014248506 309.47485828099 -12.509759460702 307.4667075226 -12.509759460702z"/><glyph unicode="&#xE002;" glyph-name="002-back" horiz-adv-x="512" d="M504.15566110005 184.16350543895H7.844338899954c-4.3300750727746 0 -7.844338899954 3.5142638271794 -7.844338899954 7.844338899954s3.5142638271794 7.844338899954 7.844338899954 7.844338899954h496.31132220009c4.3300750727746 0 7.844338899954 -3.5142638271794 7.844338899954 -7.844338899954 S508.48573617282 184.16350543895 504.15566110005 184.16350543895zM204.5332924774 -12.509759460702c-2.0081507583882 0 -4.0163015167765 0.7687452121955 -5.5537919411675 2.2905469587866L2.2905469587866 186.48542975333C0.83149992339513 187.96016546652 0 189.95262754711 0 192.0392216945s0.83149992339513 4.0790562279761 2.2905469587866 5.5537919411675 L198.99518921403 394.20352382412c3.0592921709821 3.0592921709821 8.0326030335529 3.0592921709821 11.091895204535 0s3.0592921709821 -8.0326030335529 0 -11.091895204535L18.936234104489 192.0392216945l191.15085031408 -191.15085031408c3.0592921709821 -3.0592921709821 3.0592921709821 -8.0326030335529 0 -11.091895204535 C208.54959399418 -11.741014248506 206.54144323579 -12.509759460702 204.5332924774 -12.509759460702z"/><glyph unicode="&#xE003;" glyph-name="003-facebook" horiz-adv-x="512" d="M437.01914644698 373.01914644698C388.6672408843 421.37205200771 324.37936644655 448 256.00049999902 448C188.0206327722 448 123.04975966844 421.0880525624 74.98085355302 373.01914644698 C26.628947990336 324.6672408843 0.00099999804687881 260.37936644655 0.00099999804687881 192.00049999902c0 -53.305895886922 16.226968306703 -104.3987960961 46.925908347835 -147.75671141267c30.019941367302 -42.397917191568 71.525860301054 -74.32085484208 120.02976556686 -92.317819691758 c3.2579936367312 -1.2089976386765 7.0249862793237 -0.22299956445398 9.266981900426 2.7029947207134c1.1109978300824 1.451997164068 1.6299968164125 3.2739936054812 1.6299968164125 5.1019900351757V105.76866842057c0 4.4649912793139 -3.6199929297013 8.0839842109683 -8.0839842109683 8.0839842109683h-67.367868422132v59.283884211164 h67.367868422132c4.4649912793139 0 8.0839842109683 3.6199929297013 8.0839842109683 8.0839842109683V192.00049999902c0 70.339862617456 66.738869650645 132.04174210597 142.82072105328 132.04174210597h35.031931578259v-59.283884211164h-35.031931578259 c-22.813955441493 0 -43.558914923994 -6.5669871738532 -58.412885912332 -18.488963888742c-16.4359678985 -13.191974234425 -25.123950929783 -31.957937582153 -25.123950929783 -54.268894006066v-10.778978947307c0 -4.4649912793139 3.6199929297013 -8.0839842109683 8.0839842109683 -8.0839842109683h31.871937750122 c4.4649912793139 0 8.0839842109683 3.6199929297013 8.0839842109683 8.0839842109683c0 4.4649912793139 -3.6199929297013 8.0839842109683 -8.0839842109683 8.0839842109683h-23.787953539153V192.00049999902c0 41.767918422034 36.290929119279 56.588889474825 67.367868422132 56.588889474825h43.115915789227 c4.4649912793139 0 8.0839842109683 3.6199929297013 8.0839842109683 8.0839842109683v75.452852631147c0 4.4649912793139 -3.6199929297013 8.0839842109683 -8.0839842109683 8.0839842109683h-43.115915789227c-39.517922816557 0 -79.572844584288 -15.719969296935 -109.89478536175 -43.128915763836 c-31.658938166136 -28.618944103625 -49.094904111515 -65.936871217048 -49.094904111515 -105.08179476212v-2.6949947363384H94.315815789422c-4.4649912793139 0 -8.0839842109683 -3.6199929297013 -8.0839842109683 -8.0839842109683v-75.452852631147 c0 -4.4649912793139 3.6199929297013 -8.0839842109683 8.0839842109683 -8.0839842109683h67.367868422132v-126.24775342236C74.181855113564 8.9248575686375 16.168968419984 96.113687277955 16.168968419984 192.00049999902 c0 132.24374171144 107.5877898676 239.83153157904 239.82953158295 239.83153157904c132.0977419966 0 239.83253157709 -107.73378958244 239.83253157709 -239.83253157709c0 -132.2427417134 -107.5877898676 -239.82953158295 -239.83153157904 -239.82953158295 c-0.88499827148775 0 -1.781996519538 0.0049999902343941 -2.6949947363384 0.01699996679694V97.684684209601H363.78928947404c4.4649912793139 0 8.0839842109683 3.6199929297013 8.0839842109683 8.0839842109683v75.452852631147c0 4.4649912793139 -3.6199929297013 8.0839842109683 -8.0839842109683 8.0839842109683 h-47.316907584165c-4.4649912793139 0 -8.0839842109683 -3.6199929297013 -8.0839842109683 -8.0839842109683c0 -4.4649912793139 3.6199929297013 -8.0839842109683 8.0839842109683 -8.0839842109683h39.232923373197v-59.283884211164H245.22152105172c-4.4649912793139 0 -8.0839842109683 -3.6199929297013 -8.0839842109683 -8.0839842109683 v-161.43668469398c0 -4.3249915527509 3.407993343763 -7.8909845879207 7.7289849043264 -8.0769842246402c4.0049921777497 -0.17099966601628 7.6479850625292 -0.2549995019541 11.134978251996 -0.2549995019541c68.378866447526 0 132.66674088527 26.627947992289 181.01864644796 74.98085355302 c48.068906115418 48.069906113465 74.98085355302 113.03977921918 74.98085355302 181.02064644405C512 260.37936644655 485.37105200966 324.6672408843 437.01914644698 373.01914644698z"/><glyph unicode="&#xE004;" glyph-name="004-instagram" horiz-adv-x="512" d="M373.40554986459 448h-234.81205972739c-76.421731709253 0 -138.59349013721 -62.171758427953 -138.59349013721 -138.59349013721v-234.81596572006c0 -76.417825716577 62.171758427953 -138.58958414453 138.59349013721 -138.58958414453h234.81596572006c76.417825716577 0 138.58958414453 62.171758427953 138.58958414453 138.58958414453v234.81596572006c0 76.421731709253 -62.171758427953 138.59349013721 -138.59349013721 138.59349013721zm108.5779214164 -373.40945585727c0 -59.867075749233 -48.706939674488 -108.57401542372 -108.5779214164 -108.57401542372h-234.81205972739c-59.870981741909 0 -108.5779214164 48.706939674488 -108.5779214164 108.57401542372v234.81596572006c0 59.870981741909 48.706939674488 108.5779214164 108.5779214164 108.5779214164h234.81596572006c59.867075749233 0 108.57401542372 -48.706939674488 108.57401542372 -108.5779214164zm0 0 M255.9995200009 331.99631150692c-77.195167259061 0 -139.99583150782 -62.800664248755 -139.99583150782 -139.99583150782s62.800664248755 -139.99583150782 139.99583150782 -139.99583150782 139.99583150782 62.800664248755 139.99583150782 139.99583150782 -62.800664248755 139.99583150782 -139.99583150782 139.99583150782zm0 -249.97609429482c-60.640511299041 0 -109.98026278701 49.33584549529 -109.98026278701 109.98026278701 0 60.640511299041 49.339751487966 109.98026278701 109.98026278701 109.98026278701 60.644417291718 0 109.98026278701 -49.339751487966 109.98026278701 -109.98026278701 0 -60.644417291718 -49.33584549529 -109.98026278701 -109.98026278701 -109.98026278701zm0 0 M399.34300123187 381.71496828443c-22.812457226643 0 -41.367110436668 -18.558559202701 -41.367110436668 -41.367110436668 0 -22.812457226643 18.554653210025 -41.371016429344 41.367110436668 -41.371016429344s41.371016429344 18.558559202701 41.371016429344 41.371016429344 -18.558559202701 41.367110436668 -41.371016429344 41.367110436668zm0 -52.718651152529c-6.2578002666245 0 -11.351540715861 5.0937404492367 -11.351540715861 11.351540715861 0 6.2617072592989 5.0937404492367 11.351541715859 11.351540715861 11.351541715859 6.2617072592989 0 11.355447708536 -5.0898344565604 11.355447708536 -11.351541715859 0 -6.2578002666245 -5.0937404492367 -11.351540715861 -11.355447708536 -11.351540715861zm0 0"/><glyph unicode="&#xE005;" glyph-name="005-instagram-1" horiz-adv-x="512" d="M256 448C114.84087817653 448 0 333.15912182347 0 192s114.84087817653 -256 256 -256s256 114.84087817653 256 256 S397.15912182347 448 256 448zM256 -34.710499218184C130.99241066321 -34.710499218184 29.289500781816 66.992410663209 29.289500781816 192S130.99241066321 418.71049921818 256 418.71049921818s226.71049921818 -101.70290988139 226.71049921818 -226.71049921818 S381.00758933679 -34.710499218184 256 -34.710499218184zM349.22522659954 317.29397556666H162.77477340046c-17.048116649505 0 -30.916695269695 -13.86857862019 -30.916695269695 -30.916695269695v-188.75456059393c0 -17.048116649505 13.86857862019 -30.916695269695 30.916695269695 -30.916695269695h186.45045319909c17.048116649505 0 30.916695269695 13.86857862019 30.916695269695 30.916695269695v188.75456059393 C380.14192186924 303.42376975198 366.27334324905 317.29397556666 349.22522659954 317.29397556666zM350.85242108742 97.622719703037c0 -0.89821135730903 -0.72898313056965 -1.6271944878787 -1.6271944878787 -1.6271944878787H162.77477340046c-0.89821135730903 0 -1.6271944878787 0.72898313056965 -1.6271944878787 1.6271944878787v188.75456059393 c0 0.89821135730903 0.72898313056965 1.6271944878787 1.6271944878787 1.6271944878787h186.45045319909c0.89821135730903 0 1.6271944878787 -0.72898313056965 1.6271944878787 -1.6271944878787V97.622719703037zM298.72524566823 266.06012992131l33.544614367619 0l0 -30.771874960274l-33.544614367619 0ZM222.92889922835 179.60077800236C222.92889922835 197.86544262426 237.73533537811 212.67187877401 256 212.67187877401C274.26466462189 212.67187877401 289.07110077165 197.86544262426 289.07110077165 179.60077800236C289.07110077165 161.33611338047 274.26466462189 146.52967723072 256 146.52967723072C237.73533537811 146.52967723072 222.92889922835 161.33611338047 222.92889922835 179.60077800236ZM308.75201810254 179.74722550627c0 -29.13329011098 -23.617100797071 -52.750390908051 -52.750390908051 -52.750390908051s-52.750390908051 23.617100797071 -52.750390908051 52.750390908051l0.071596557466662 23.504824377407h-23.589438490777v-87.479602862845h152.53809287721 v87.479602862845H308.87405768913L308.75201810254 179.74722550627z"/><glyph unicode="&#xE006;" glyph-name="006-right-arrow" horiz-adv-x="512" d="M344.77484915846 366.59053667831c-6.9751667195935 7.2190536678311 -18.5841854557 7.2190536678311 -25.803239123531 0c-6.9751667195935 -6.9751667195935 -6.9751667195935 -18.5841854557 0 -25.543093045411l130.8372181645 -130.8372181645H18.06389329946 C7.9994919021912 210.19396633852 0 202.19447443633 0 192.13007303906c0 -10.064401397269 7.9994919021912 -18.32403937758 18.06389329946 -18.32403937758h431.74493489997l-130.8372181645 -130.59333121626c-6.9751667195935 -7.2190536678311 -6.9751667195935 -18.84433153382 0 -25.803239123531 c7.2190536678311 -7.2190536678311 18.84433153382 -7.2190536678311 25.803239123531 0l161.81086059066 161.81086059066c7.2190536678311 6.9751667195935 7.2190536678311 18.5841854557 0 25.543093045411L344.77484915846 366.59053667831z"/><glyph unicode="&#xE007;" glyph-name="007-left-arrow" horiz-adv-x="512" d="M167.00882707817 366.56836222773c7.2181367879596 7.2181367879596 18.581825109545 7.2181367879596 25.799961897504 0c6.9742808153934 -6.9742808153934 6.9742808153934 -18.581825109545 0 -25.5398488601l-130.82060074935 -130.82060074935h431.69009970153 c10.063123134565 0 18.321712072141 -7.9984759001715 18.321712072141 -18.061599034737c0 -10.063123134565 -8.2585889375754 -18.321712072141 -18.321712072141 -18.321712072141H61.988188226329l130.82060074935 -130.57674477678c6.9742808153934 -7.2181367879596 6.9742808153934 -18.841938146949 0 -25.799961897504 c-7.2181367879596 -7.2181367879596 -18.581825109545 -7.2181367879596 -25.799961897504 0l-161.79030926526 161.79030926526c-6.9742808153934 6.9742808153934 -6.9742808153934 18.581825109545 0 25.5398488601L167.00882707817 366.56836222773z"/><glyph unicode="&#xE008;" glyph-name="008-play-button" horiz-adv-x="512" d="M388.80426666667 199.04853333333l-187.73333333333 128c-2.6197333333333 1.7749333333333 -5.9989333333333 1.9712 -8.7978666666667 0.49493333333333C189.48266666667 326.0672 187.73333333333 323.16586666667 187.73333333333 320v-256 c0 -3.1658666666667 1.7493333333333 -6.0672 4.5482666666667 -7.5434666666667C193.52746666667 55.790933333333 194.90133333333 55.466666666667 196.26666666667 55.466666666667c1.6810666666667 0 3.3621333333333 0.50346666666667 4.8042666666667 1.4848l187.73333333333 128 C391.13386666667 186.53866666667 392.53333333333 189.17546666667 392.53333333333 192S391.13386666667 197.46133333333 388.80426666667 199.04853333333zM204.8 80.1536V303.8464L368.85333333333 192L204.8 80.1536zM256 448C114.8416 448 0 333.1584 0 192s114.8416 -256 256 -256s256 114.8416 256 256S397.1584 448 256 448zM256 -46.933333333333C124.25386666667 -46.933333333333 17.066666666667 60.253866666667 17.066666666667 192 S124.25386666667 430.93333333333 256 430.93333333333s238.93333333333 -107.1872 238.93333333333 -238.93333333333S387.74613333333 -46.933333333333 256 -46.933333333333z"/><glyph unicode="&#xE009;" glyph-name="009-arrow-down-sign-to-navigate" horiz-adv-x="512" d="M255.99943343654 46.073082260146c-9.1760618085325 0 -18.350990490144 3.5036284406005 -25.346916102132 10.496154671825L10.504086560274 276.71993395995c-14.00431562011 14.00431562011 -14.00431562011 36.709912868737 0 50.70856285424 c13.998649985504 13.998649985504 36.699714726445 13.998649985504 50.705163473477 0l194.79018340279 -194.801514672l194.79131652971 194.79471591047c14.00431562011 13.998649985504 36.703114107209 13.998649985504 50.700630965792 0 c14.011114381638 -13.998649985504 14.011114381638 -36.70424723413 0 -50.70856285424L281.34634953867 56.562438170443C274.34702454592 49.568778812297 265.17209586431 46.073082260146 255.99943343654 46.073082260146z"/><glyph unicode="&#xE00A;" glyph-name="012-winner" horiz-adv-x="512" d="M208.82095076321 35.218226727651c-75.188866985094 19.958142108011 -127.7017897911 88.293161081199 -127.7017897911 166.17888560765c0 29.74721635668 7.7135710890688 58.944888147796 22.292958492742 84.662775929375 c8.2162398023983 2.3946578982227 30.104270720514 10.313684850279 41.119098637203 29.11788310646c13.431427703192 22.930270611428 4.8361916486804 52.065108813377 4.4631795479161 53.293854557072c-1.133996680666 3.7390972346676 -4.9508878828727 5.9761724806957 -8.7667817265212 5.1363965746967 c-1.2536797076493 -0.27626832061961 -30.870242093206 -7.0263910424734 -44.302667154957 -29.956661653901c-10.91509206087 -18.632652584172 -7.2837095504874 -41.36345148396 -5.3398577205682 -49.886877722282c-7.5300571143612 -13.219987688855 -13.390536002306 -27.283740717942 -17.474719298109 -41.86612019729 c-3.277320222224 6.2225200445695 -7.7335182602327 12.364254045925 -13.810423955306 17.328107590054c0 0.00099735855819353 0 0.00099735855819353 0 0.00099735855819353C38.719453946189 286.03794637639 8.6072043572102 282.0465174265 7.3355721955134 281.86599552747 c-3.8677564886745 -0.54156569709909 -6.668339320082 -3.9694870616103 -6.4279759075573 -7.8681616655888c0.079788684655483 -1.2816057472787 2.1742416568619 -31.585348179431 22.755732863744 -48.397821394899c13.753574517489 -11.23524415805 31.762878002789 -13.178098629411 42.577236849282 -13.178098629411 c0.088764911679225 0 0.17354038912567 0.00099735855819353 0.26130794224671 0.00099735855819353c-0.2154294485698 -3.6652927013612 -0.34309134401858 -7.3405589883044 -0.34309134401858 -11.02579886083c0 -16.949111337941 2.2939246838451 -33.481326798557 6.6094951651486 -49.259539189179 c-5.2730346971692 3.2334364456634 -11.280125293169 5.8784313419927 -17.937493669111 7.1759948262025c-26.084915730994 5.086528646787 -50.729645703956 -12.670443123291 -51.766898604477 -13.428435627518c-3.1526504024498 -2.3068903451016 -3.9994078183561 -6.6503868660345 -1.9438518299192 -9.9725882233772 c0.25133435666477 -0.40592493318477 6.2634117454554 -10.030435019752 16.621977730853 -18.682520512081c3.1716002150554 -2.648984330562 7.8891061953109 -2.226104301888 10.536095808756 0.94549591316747c2.648984330562 3.1706028564972 2.226104301888 7.8881088367527 -0.94549591316747 10.536095808756 c-3.674268928385 3.0698696421197 -6.7022495110606 6.3172691075978 -8.9522904183452 9.008142497604c7.58590919362 4.0383048021256 20.736081783402 9.4160621479052 33.588044164284 6.9097000911648c12.851962380882 -2.5053646981822 23.020032881665 -12.42808499365 28.530438915684 -19.015638270518 c-6.8817740515354 -3.6623006256867 -18.347408036528 -8.4276798167354 -30.014508450276 -7.4063846531452c-4.0542625390567 0.34608341969316 -7.7484786386056 -2.7437333935904 -8.1035382853225 -6.8009880083217c-0.3550596467169 -4.0602466904059 2.7407413179158 -7.7484786386056 6.8009880083217 -8.1035382853225 c1.5249612354779 -0.13264868823974 3.0359594511411 -0.19548227740593 4.5359867226642 -0.19548227740593c14.182438697512 0.00099735855819353 27.053350891 5.586205284442 34.738995940439 9.7920663243441c8.8495624868512 -16.445445266053 20.115724760205 -31.482620247937 33.388572452645 -44.591901136833 c-7.0303804767062 0.14361963237987 -14.560437591067 -0.78192910962373 -21.845144500113 -3.6972081752234c-24.67365337115 -9.8708576504414 -35.755304311238 -38.152954285135 -36.214089248007 -39.352776630642c-1.3982966985873 -3.6473402473138 0.24535020531561 -7.7564575070711 3.7740047842043 -9.4330172433944 c0.83977590599896 -0.39894342327741 15.497954635769 -7.2348389811359 32.889893173548 -7.2348389811359c6.632434411987 0 13.663812247251 0.99436648251895 20.474773841155 3.7191500635037c16.612004145272 6.6454000732435 27.054348249558 21.628717692985 32.250586337746 31.081682107543 c15.724355028479 -9.9546357693297 33.118288283375 -17.672196292631 51.807790305363 -22.633057761086c4.0462836705912 -1.072160450058 8.2930364113792 1.5020219886395 9.2155930777083 5.5832132087674C215.07438892309 30.212484124078 212.65579441947 34.200920998294 208.82095076321 35.218226727651zM33.12626715184 237.18532947896c-10.149120688177 8.2910416942629 -14.416817958688 21.859107519928 -16.155213925619 30.267837524057c8.5643179392079 -0.0099735855819353 22.654999649366 -1.4750933075682 32.863961851035 -9.8140082126244v0 c10.140144461154 -8.2840601843555 14.408839090222 -21.834173555973 16.150227132828 -30.244898277219C57.392000872689 227.42418126992 43.263419537319 228.90426137028 33.12626715184 237.18532947896zM108.83376058719 336.08839090222 c6.6174740336141 11.298077747216 19.34576395328 17.608365344907 27.386468649436 20.627369700559c1.2995582013262 -8.4945028401343 2.0186537217837 -22.680930971879 -4.5978229532722 -33.976016643421c-6.6174740336141 -11.298077747216 -19.34576395328 -17.608365344907 -27.386468649436 -20.627369700559 C102.9363794326 310.60687709893 102.21628655358 324.79330523068 108.83376058719 336.08839090222zM115.36745650192 26.200110644465c-12.167774409961 -4.8681071225426 -26.106857619274 -2.0336141001566 -34.305144967625 0.51463701602786 c4.1549957534343 7.4901627720334 12.25653932164 19.110387333546 24.495126189233 24.006420495718c12.168771768519 4.8681071225426 26.106857619274 2.0346114587148 34.305144967625 -0.51463701602786C135.70858429628 42.71636836815 127.60704072807 31.096143806637 115.36745650192 26.200110644465zM508.93711186779 145.88513234481c-1.0372529005213 0.75898986278528 -25.684974949158 18.513966915747 -51.766898604477 13.428435627518c-6.6573683759418 -1.2975634842098 -12.664458971941 -3.942558380539 -17.937493669111 -7.1759948262025 c4.3165678398616 15.778212390622 6.6094951651486 32.310427851238 6.6094951651486 49.259539189179c0 3.6862372310833 -0.12766189544877 7.3634982351429 -0.34408870257677 11.029788295062c0.086770194562837 0 0.17054831345109 -0.0019947171163871 0.25931322513032 -0.0019947171163871 c6.6204661092887 0 15.938787118491 0.72408231324851 25.288026242997 3.8478093175107c3.9186217751424 1.3095317869081 6.0330219185127 5.5473083006724 4.7234901316046 9.4659300758148c-1.3095317869081 3.9176244165842 -5.5463109421142 6.0310272013963 -9.4659300758148 4.7234901316046 c-7.3844427648649 -2.468462431529 -14.920484030575 -3.0539119051886 -20.288267790773 -3.0708670006779c1.7423854011641 8.4147141554788 6.0110800302324 21.964827527096 16.150227132828 30.247890352894c10.141141819712 8.2840601843555 24.272715230756 9.7631429261565 32.860969775361 9.7910689657859 c-1.2227615923453 -5.9053600230639 -3.6922213824325 -14.343013425381 -8.5732941662316 -21.724464114572c-2.2789643054722 -3.4458738185587 -1.3324710337466 -8.0865831898332 2.1134027848121 -10.365547495305c3.4448764600005 -2.2789643054722 8.085585831275 -1.3324710337466 10.365547495305 2.1134027848121 c10.802390543794 16.334738466094 12.111922330702 35.726380913051 12.161790258612 36.544214930769c0.24036341252464 3.8986746039785 -2.5592220603246 7.3265959684897 -6.4279759075573 7.8681616655888c-1.2726295202549 0.17952454047484 -31.384879109234 4.1719508489236 -51.964375599 -12.640522366545 c-6.0779030536314 -4.9648509026874 -10.533103733082 -11.105587545485 -13.810423955306 -17.328107590054c-4.0841832958025 14.582379479348 -9.9446621837477 28.646132508435 -17.474719298109 41.86612019729c1.9438518299192 8.5234262383219 5.5752343403019 31.254225138111 -5.3398577205682 49.886877722282 c-13.432425061751 22.930270611428 -43.048987447308 29.680393333281 -44.302667154957 29.956661653901c-3.8158938436485 0.83977590599896 -7.6337824044133 -1.3972993400291 -8.7677790850794 -5.1363965746967c-0.37301210076438 -1.2287457436944 -8.9682481552763 -30.363583945644 4.4631795479161 -53.293854557072 c11.014827916689 -18.804198256181 32.903856193363 -26.723225208238 41.119098637203 -29.11788310646c14.579387403673 -25.717887781578 22.292958492742 -54.915559572694 22.292958492742 -84.662775929375c0 -77.885724526449 -52.512922806006 -146.22074349964 -127.70278714966 -166.17888560765 c-3.8348436562541 -1.0183030879156 -6.2534381598735 -5.0057426035733 -5.3777573457795 -8.8764911679225c0.92355402488721 -4.0811912201279 5.1703067656753 -6.6553736588255 9.2155930777083 -5.5832132087674c18.689502021989 4.9608614684546 36.084432635442 12.678421991756 51.807790305363 22.633057761086 c5.1962380881883 -9.4529644145583 15.638582192475 -24.4362820343 32.250586337746 -31.081682107543c6.81295631102 -2.7257809395429 13.84134207061 -3.7191500635037 20.474773841155 -3.7191500635037c17.388946462104 0 32.050117267549 6.8358955578585 32.889893173548 7.2348389811359 c3.5286545788887 1.6765597363233 5.1713041242335 5.7856769960807 3.7740047842043 9.4330172433944c-0.45978229532722 1.1988249869486 -11.541433235416 29.481918980201 -36.215086606565 39.352776630642c-7.2847069090456 2.9142817070415 -14.813766664849 3.8408278076033 -21.844147141555 3.6972081752234 c13.271850333881 13.109280888896 24.538012607236 28.144461153663 33.387575094087 44.589906419717c7.6826529737648 -4.2058610399021 20.54957573302 -9.7890742486695 34.741988016114 -9.7890742486695c3.1696054979391 0 6.4070313778353 0.27926039629419 9.6644044288953 0.91457779786347 c26.083918372436 5.0855312882288 42.257084752102 30.797434918458 42.932296495999 31.88954253968C512.93552232759 139.23474547877 512.08876491168 143.57923935826 508.93711186779 145.88513234481zM406.44355963503 50.721168156211 c12.167774409961 -4.8681071225426 20.305222886262 -16.533212819174 24.484155245093 -24.034346535348c-8.1753481015124 -2.5572273432082 -22.057581873008 -5.3827441385705 -34.295171382043 -0.48671097639844c-12.167774409961 4.8681071225426 -20.305222886262 16.533212819174 -24.484155245093 24.034346535348 C380.32273899594 52.792681881579 394.20497276744 55.618198676942 406.44355963503 50.721168156211zM380.3785910752 322.73974395936c-6.6184713921723 11.298077747216 -5.8973811545984 25.486500596078 -4.5988203118304 33.976016643421 c8.044694130389 -3.0209990727682 20.770989332939 -9.3312866704587 27.387466007994 -20.627369700559c6.6184713921723 -11.298077747216 5.8973811545984 -25.486500596078 4.5988203118304 -33.976016643421C399.72036559425 305.13337333157 386.99506775026 311.44366092926 380.3785910752 322.73974395936zM465.08624813969 118.70711163403c-12.861935966464 -2.5073594152985 -26.02607157606 2.8813688746211 -33.604999259773 6.9176789596304c5.4814826358317 6.5815691255191 15.612650869962 16.482347532706 28.551383445406 19.004667326378 c12.86393068358 2.5053646981822 26.027068934618 -2.8813688746211 33.604999259773 -6.9186763181885C488.15614894927 131.13020983489 478.02498071514 121.2294314277 465.08624813969 118.70711163403zM327.63128900802 129.69700558677c0 17.563484209788 -14.289156063239 31.853637631585 -31.853637631585 31.853637631585H295.61707664856V262.57608365345c0 4.1310591480376 -3.3491300384139 7.4801891864515 -7.4801891864515 7.4801891864515 c-4.1310591480376 0 -7.4801891864515 -3.3491300384139 -7.4801891864515 -7.4801891864515v-108.50562962155c0 -4.1310591480376 3.3491300384139 -7.4801891864515 7.4801891864515 -7.4801891864515h7.6407639143207c9.3143315749694 0 16.893259258682 -7.5779303251545 16.893259258682 -16.893259258682 c0 -9.3143315749694 -7.5779303251545 -16.893259258682 -16.893259258682 -16.893259258682h-68.855640140565c-9.3143315749694 0 -16.893259258682 7.5779303251545 -16.893259258682 16.893259258682c0 9.3143315749694 7.5779303251545 16.893259258682 16.893259258682 16.893259258682h12.467979335977 c4.1310591480376 0 7.4801891864515 3.3491300384139 7.4801891864515 7.4801891864515V284.7782825174c0 3.0239911484428 -1.8211767272614 5.7507694465439 -4.6147780487615 6.9097000911648c-2.7916066043837 1.1589306446209 -6.0100826716742 0.52161852593522 -8.1494167789994 -1.6157208642735l-5.9502411581826 -5.9392702140425 c-6.5935374282175 -6.5795744084027 -17.310155136007 -6.5696008228208 -23.890726902968 0.020944529722064c-6.5805717669609 6.5925400696593 -6.5696008228208 17.309157777449 0.022939246838451 23.890726902968l47.541090393411 47.45332284029 c4.8511520270534 4.8401810829132 12.077014781166 6.2733853310373 18.406252191462 3.6483376058719c6.3302347688544 -2.6260450837236 10.421399574564 -8.7508239895901 10.421399574564 -15.604672001496v-51.044811008345c0 -4.1310591480376 3.3491300384139 -7.4801891864515 7.4801891864515 -7.4801891864515 c4.1310591480376 0 7.4801891864515 3.3491300384139 7.4801891864515 7.4801891864515v51.044811008345c0 12.922774838514 -7.7125737305106 24.472186942395 -19.650955672087 29.423074825267c-11.938381941577 4.9478958071981 -25.560305129384 2.2480461901682 -34.70508574946 -6.8787819758608l-47.541090393411 -47.45332284029 c-12.431077069324 -12.408137822486 -12.45002688193 -32.615619570045 -0.041889059444128 -45.047693997927c10.333632021443 -10.351584475491 26.077934221086 -12.094967235213 38.233740328349 -5.2211720521432v-106.81311214829h-4.9877901495259 c-17.563484209788 0 -31.853637631585 -14.289156063239 -31.853637631585 -31.853637631585c0 -17.563484209788 14.289156063239 -31.853637631585 31.853637631585 -31.853637631585h68.855640140565 C313.34213294478 97.844365313739 327.63128900802 112.13352137698 327.63128900802 129.69700558677zM49.818059981767 110.58761561178 M22.540303415174 122.9758062631"/><glyph unicode="&#xE00B;" glyph-name="014-shopping-bag" horiz-adv-x="512" d="M329.01555711143 384.73315556615C323.86980291677 420.79919756489 292.47663453947 448 255.99618644699 448C232.53520833023 448 210.25388927786 436.67883229801 196.40052237731 417.70513488954 c-2.8296563333284 -3.869485120688 -1.9830475651358 -9.2974422380789 1.8864375555522 -12.127098571407c3.8567732773218 -2.8194868586354 9.2974422380789 -1.9830475651358 12.122013834061 1.8915222928987c10.60421973613 14.509298018243 27.643174584258 23.173690456683 45.584670311391 23.173690456683 c27.899953820257 0 51.902456464419 -20.791491009847 55.838043170612 -48.358394533907c0.62033795627325 -4.3296538505465 4.334738587893 -7.4542249499719 8.5830366408954 -7.4542249499719c0.40423661904691 0 0.82118508146007 0.030508424079012 1.2355911752 0.086440534890534 C326.39437500931 375.59588255448 329.69182717852 379.99163799054 329.01555711143 384.73315556615zM454.35179033403 287.58670619255l-26.03385521409 43.390606146375c-1.5660991027226 2.6160973647753 -4.3906706987045 4.2127048915769 -7.4415131066057 4.2127048915769h-24.948263790612c-4.7898225804049 0 -8.6771042818057 -3.8872817014008 -8.6771042818057 -8.6771042818057 s3.8872817014008 -8.6771042818057 8.6771042818057 -8.6771042818057h20.036407513891l15.620313128454 -26.03385521409H80.404951660236l15.620313128454 26.03385521409h9.1906627538024c4.7898225804049 0 8.6771042818057 3.8872817014008 8.6771042818057 8.6771042818057s-3.8872817014008 8.6771042818057 -8.6771042818057 8.6771042818057 h-14.102519030523c-3.0508424079012 0 -5.8754140038831 -1.5966075268016 -7.4415131066057 -4.2127048915769l-26.03385521409 -43.390606146375c-1.6093193701679 -2.6847413189531 -1.6474549002667 -6.0228713869316 -0.10932185294979 -8.7432058673102s4.4211791227835 -4.4033825420707 7.5508349595555 -4.4033825420707h381.83072392955 c3.129655836772 0 6.0101595435654 1.6830480616922 7.5508349595555 4.4033825420707S455.9611097042 284.90704961095 454.35179033403 287.58670619255zM411.09592972734 367.60267544578c-1.215252225814 1.9601662470765 -3.1550795235045 3.3508419113448 -5.3974486933119 3.8745698580345l-118.29895673504 27.668598270991c-2.2398268011341 0.52627031536296 -4.5991449299111 0.1347455396823 -6.5567688083143 -1.0754219487852 c-1.9525391410568 -1.215252225814 -3.3457571739983 -3.1550795235045 -3.869485120688 -5.3974486933119l-8.9211716744378 -38.135530098765c-1.0932185294979 -4.6652465154156 1.8050817580082 -9.3330353995044 6.4728706420971 -10.421169191656c4.6652465154156 -1.0932185294979 9.3381201368509 1.8050817580082 10.426253929002 6.4728706420971 l6.9457512153217 29.682154260205l101.39728979527 -23.717757352759l-15.933024475264 -68.122768599761c-1.0932185294979 -4.6652465154156 1.8050817580082 -9.3330353995044 6.4728706420971 -10.421169191656c0.66864296106501 -0.15508448906831 1.3322011847835 -0.22881318059259 1.9881323024823 -0.22881318059259 c3.9406714435391 0 7.5076146921102 2.6999955309926 8.4355792578468 6.6991414540164l17.910987303053 76.571059700974C412.69762199149 363.29081817595 412.31118195315 365.65013630473 411.09592972734 367.60267544578zM260.58516190221 347.08830262132l-7.9067665738106 66.877007949868c-0.26949107936461 2.2855894372527 -1.4364383003868 4.3728741179917 -3.2466047957415 5.7966005750123c-1.8101664953547 1.4237264570206 -4.0957559326074 2.0745728373728 -6.391514844553 1.8050817580082l-145.1438275559 -17.155903807098 c-4.7567717876526 -0.56440584546172 -8.1584610724625 -4.8762631152954 -7.596597595674 -9.6381196402946l13.182181570806 -111.54134080154c0.52372794668971 -4.416094385437 4.2686370023884 -7.6626991811785 8.6084603276279 -7.6626991811785c0.33813503354238 0 0.68643954177777 0.022881318059259 1.0322016813399 0.061016848158024 c4.7542294189794 0.56440584546172 8.1559187037892 4.8762631152954 7.596597595674 9.6381196402946l-12.165234101506 102.93033810524l127.90911031993 15.11692413115l6.8847343671637 -58.258378147547c0.56440584546172 -4.7593141563259 4.8559241659094 -8.1406644917497 9.6381196402946 -7.6016823330205 C257.74279372551 338.01458882649 261.14448301032 342.328988465 260.58516190221 347.08830262132zM329.21640423662 286.41721660286l-17.224547761276 71.628695000174c-0.53898215872921 2.2347420637876 -1.944912035037 4.1694846241316 -3.9050782821135 5.3720250065794c-1.9601662470765 1.1923709077547 -4.3118572698337 1.5660991027226 -6.5618535456608 1.0322016813399L161.72769841152 330.82985495588 c-4.6601617780691 -1.1186422162304 -7.5279536414962 -5.8067700497053 -6.4093114252658 -10.466931827774l8.6084603276279 -35.801635656721c1.1186422162304 -4.6652465154156 5.8067700497053 -7.535580747516 10.464389459101 -6.4093114252658c4.6601617780691 1.1186422162304 7.5279536414962 5.8067700497053 6.4093114252658 10.466931827774 l-6.5821924950469 27.366056398874l122.92352535169 29.557578195216l15.195737560021 -63.18803100498c0.95338825246913 -3.9788069736378 4.5127043950205 -6.6482940805514 8.4304945205003 -6.6482940805514c0.67372769841152 0 1.3550825028428 0.078813428870781 2.0389796759473 0.2440673926321 C327.46725458942 277.07146935999 330.33504645285 281.75705482479 329.21640423662 286.41721660286zM455.58483914056 283.5621365828c-0.23898265528559 4.6118567732773 -4.0474509278156 8.2321897639868 -8.6694771757859 8.2321897639868H65.084638035226c-4.6220262479703 0 -8.4304945205003 -3.6177906220362 -8.6694771757859 -8.2321897639868l-17.356750932285 -338.44011778317 c-0.12203369631605 -2.3745723408164 0.73728691524279 -4.6982973081679 2.3745723408164 -6.422023268632c1.6398277942469 -1.7211835917909 3.9127053881333 -2.6999955309926 6.2923624662962 -2.6999955309926h416.54168342544c2.3771147094897 0 4.6525346720493 0.97626957052839 6.299989572316 2.6999955309926 c1.6347430569004 1.7237259604642 2.4940636684592 4.0449085591423 2.3745723408164 6.422023268632L455.58483914056 283.5621365828zM56.857533008585 -46.643249067715l16.466921896647 321.08336685089h365.34092071484l16.466921896647 -321.08336685089H56.857533008585zM321.08082448222 257.08590921956c-14.356755897848 0 -26.03385521409 -11.677099316242 -26.03385521409 -26.03385521409c0 -14.356755897848 11.677099316242 -26.03385521409 26.03385521409 -26.03385521409c14.356755897848 0 26.03385521409 11.677099316242 26.03385521409 26.03385521409 C347.11467969631 245.40880990332 335.43758038006 257.08590921956 321.08082448222 257.08590921956zM321.08082448222 222.37240735499c-4.7872802117316 0 -8.6771042818057 3.8923664387473 -8.6771042818057 8.6771042818057s3.8923664387473 8.6771042818057 8.6771042818057 8.6771042818057 c4.7847378430584 0 8.6771042818057 -3.8923664387473 8.6771042818057 -8.6771042818057S325.86556232527 222.37240735499 321.08082448222 222.37240735499zM190.91154841176 257.08590921956c-14.356755897848 0 -26.03385521409 -11.677099316242 -26.03385521409 -26.03385521409c0 -14.356755897848 11.677099316242 -26.03385521409 26.03385521409 -26.03385521409c14.356755897848 0 26.03385521409 11.677099316242 26.03385521409 26.03385521409 C216.94540362585 245.40880990332 205.26830430961 257.08590921956 190.91154841176 257.08590921956zM190.91154841176 222.37240735499c-4.7847378430584 0 -8.6771042818057 3.8923664387473 -8.6771042818057 8.6771042818057s3.8923664387473 8.6771042818057 8.6771042818057 8.6771042818057 s8.6771042818057 -3.8923664387473 8.6771042818057 -8.6771042818057S195.69628625482 222.37240735499 190.91154841176 222.37240735499zM321.08082448222 231.05205400547h-0.66864296106501c-4.7898225804049 0 -8.6771042818057 -3.8872817014008 -8.6771042818057 -8.6771042818057c0 -1.184743801735 0.23389791793909 -2.3160978613317 0.66864296106501 -3.3457571739983v-44.382129928943 c0 -31.10079597988 -25.304195404867 -56.40753375342 -56.40753375342 -56.40753375342s-56.40753375342 25.304195404867 -56.40753375342 56.40753375342V222.37240735499c0 4.7898225804049 -3.8872817014008 8.6771042818057 -8.6771042818057 8.6771042818057 s-8.6771042818057 -3.8872817014008 -8.6771042818057 -8.6771042818057v-47.727887102941c0 -40.67281403467 33.088928282362 -73.761742317031 73.761742317031 -73.761742317031s73.761742317031 33.088928282362 73.761742317031 73.761742317031V222.37240735499 C329.75792876402 227.1622299354 325.87064706262 231.05205400547 321.08082448222 231.05205400547z"/><glyph unicode="&#xE00C;" glyph-name="015-money" horiz-adv-x="512" d="M435.03363015186 276.90742937334c-0.0053460748116344 0 -0.011761364585596 0 -0.01710743939723 0h-427.68598493075c-4.0437709875203 0.0042768598493075 -7.3262609218638 -3.2696593547956 -7.3305377817131 -7.3134303423159c0 -0.0053460748116344 0 -0.011761364585596 0 -0.01710743939723v-205.28927276676 c-0.0042768598493075 -4.0437709875203 3.2696593547956 -7.3262609218638 7.3134303423159 -7.3305377817131c0.0053460748116344 0 0.011761364585596 0 0.01710743939723 0h290.82646975291c4.0480478473696 0 7.3305377817131 3.2824899343435 7.3305377817131 7.3305377817131 c0 4.0480478473696 -3.2824899343435 7.3305377817131 -7.3305377817131 7.3305377817131H14.661075563426V262.24635380991H427.68598493075v-18.330621314132c-0.0042768598493075 -4.0437709875203 3.2696593547956 -7.3262609218638 7.3134303423159 -7.3305377817131c0.0053460748116344 0 0.011761364585596 0 0.01710743939723 0 c4.0437709875203 -0.0042768598493075 7.3262609218638 3.2696593547956 7.3305377817131 7.3134303423159c0 0.0053460748116344 0 0.011761364585596 0 0.01710743939723v25.661159095845C442.35133735403 273.62066257915 439.07740113938 276.90208329853 435.03363015186 276.90742937334zM385.30230382411 310.94268005413l-342.1487879446 76.983477287535c-1.8989257730925 0.42447834004377 -3.8887348179829 0.080191122174516 -5.5342566450039 -0.95801660624488c-1.6433833970964 -1.046761448118 -2.8056200611457 -2.7008369948377 -3.2333060460765 -4.6019011978549l-17.10743939723 -76.983477287535 c-0.87889469903269 -3.9539569306848 1.6145145931136 -7.8715605526505 5.5684715237984 -8.7504552516832c3.9539569306848 -0.87889469903269 7.8715605526505 1.6145145931136 8.7504552516832 5.5684715237984l15.507893813589 69.806906460397l334.98077083716 -75.366824264497 c0.53033062131413 -0.12295972066759 1.0724226072139 -0.18390497352022 1.6166530230382 -0.17962811367092c4.0480478473696 0.0074845047362882 7.3241224919391 3.2953205138914 7.3177072021652 7.343368361261C391.01405015286 307.22715806004 388.6403929365 310.18888350569 385.30230382411 310.94268005413zM343.75688724794 353.36057603956l-205.28927276676 85.53719698615c-3.5679703292848 1.4872780125967 -7.6791018594316 -0.040630168568421 -9.4090916684765 -3.4984713567335l-17.10743939723 -34.21487879446c-1.9320714369247 -3.5733164040964 -0.60196802379003 -8.0372888718112 2.9724175952687 -9.9693603087358 c3.5733164040964 -1.9320714369247 8.0372888718112 -0.60196802379003 9.9693603087358 2.9724175952687c0.075914262325208 0.14006716006482 0.14755166480111 0.28334196501662 0.21384299246538 0.42875519989308v-0.01710743939723l14.036654025427 28.090415490252l198.95096647009 -82.894097599278 c3.7465292279934 -1.5631922749219 8.0511886663214 0.20528927276676 9.6143809412433 3.9518185007601C349.27189802362 347.49165511135 347.50341647593 351.79631454968 343.75688724794 353.36057603956zM348.9404413853 242.69255057888h-67.890873247908c-4.0480478473696 0 -7.3305377817131 -3.2824899343435 -7.3305377817131 -7.3305377817131c0 -4.0480478473696 3.2824899343435 -7.3305377817131 7.3305377817131 -7.3305377817131h67.890873247908 c4.0480478473696 0 7.3305377817131 3.2824899343435 7.3305377817131 7.3305377817131S352.98848923267 242.69255057888 348.9404413853 242.69255057888zM212.61981054847 242.20498855606c-41.572146950231 0 -75.272733347812 -33.700586397581 -75.272733347812 -75.272733347812c0.042768598493075 -41.553970295872 33.71876305194 -75.229964749319 75.272733347812 -75.272733347812c41.572146950231 0 75.272733347812 33.700586397581 75.272733347812 75.272733347812 S254.19195749871 242.20498855606 212.61981054847 242.20498855606zM212.61981054847 105.34547337822c-34.013866381543 0 -61.586781830028 27.572915448486 -61.586781830028 61.586781830028c0.037422523681441 33.997828157108 27.58895367292 61.549359306347 61.586781830028 61.586781830028 c34.013866381543 0 61.586781830028 -27.572915448486 61.586781830028 -61.586781830028C274.2065923785 132.9183888267 246.63367693002 105.34547337822 212.61981054847 105.34547337822zM417.90908331523 218.25457339994c-45.33471440266 0 -94.090916684765 -10.709257062666 -94.090916684765 -34.21487879446v-205.28927276676c0 -23.505621731794 48.756202282106 -34.21487879446 94.090916684765 -34.21487879446c45.33471440266 0 94.090916684765 10.709257062666 94.090916684765 34.21487879446v205.28927276676 C512 207.54531633727 463.24379771789 218.25457339994 417.90908331523 218.25457339994zM494.89256060277 -21.121272365805c-1.2916116744909 -4.7473144327313 -26.944217050637 -17.235745192709 -76.983477287535 -17.235745192709s-75.691865613044 12.488430759978 -76.983477287535 17.10743939723 v13.446447366223c18.202315518653 -9.1695875169153 48.268640259285 -13.446447366223 76.983477287535 -13.446447366223c28.714837028251 0 58.789715488581 4.3196284478006 76.983477287535 13.455001085921V-21.121272365805zM494.89256060277 13.093606428655 c-1.2916116744909 -4.7473144327313 -26.944217050637 -17.235745192709 -76.983477287535 -17.235745192709s-75.691865613044 12.488430759978 -76.983477287535 17.10743939723v13.446447366223c18.202315518653 -9.1695875169153 48.268640259285 -13.446447366223 76.983477287535 -13.446447366223 c28.714837028251 0 58.789715488581 4.3196284478006 76.983477287535 13.455001085921V13.093606428655zM494.89256060277 47.308485223115c-1.2916116744909 -4.7473144327313 -26.944217050637 -17.235745192709 -76.983477287535 -17.235745192709s-75.691865613044 12.488430759978 -76.983477287535 17.10743939723v13.446447366223 c18.202315518653 -9.1695875169153 48.268640259285 -13.446447366223 76.983477287535 -13.446447366223c28.714837028251 0 58.789715488581 4.3196284478006 76.983477287535 13.455001085921V47.308485223115zM494.89256060277 81.523364017575 c-1.2916116744909 -4.7473144327313 -26.944217050637 -17.235745192709 -76.983477287535 -17.235745192709s-75.691865613044 12.488430759978 -76.983477287535 17.10743939723v13.446447366223c18.202315518653 -9.1695875169153 48.268640259285 -13.446447366223 76.983477287535 -13.446447366223 c28.714837028251 0 58.789715488581 4.3196284478006 76.983477287535 13.455001085921V81.523364017575zM494.89256060277 115.73824281204c-1.2916116744909 -4.7473144327313 -26.944217050637 -17.235745192709 -76.983477287535 -17.235745192709s-75.691865613044 12.488430759978 -76.983477287535 17.10743939723v13.446447366223 c18.202315518653 -9.1268189184222 48.268640259285 -13.446447366223 76.983477287535 -13.446447366223c28.714837028251 0 58.789715488581 4.3196284478006 76.983477287535 13.455001085921V115.73824281204zM494.89256060277 149.9531216065 c-1.2916116744909 -4.7473144327313 -26.944217050637 -17.235745192709 -76.983477287535 -17.235745192709s-75.691865613044 12.488430759978 -76.983477287535 17.10743939723v13.446447366223c18.202315518653 -9.1268189184222 48.268640259285 -13.446447366223 76.983477287535 -13.446447366223 c28.714837028251 0 58.789715488581 4.3196284478006 76.983477287535 13.455001085921V149.9531216065zM417.90908331523 166.93225520825c-49.96227675961 0 -75.606328416058 12.454215881183 -76.983477287535 16.953472442655v0.05132231819169 c1.377148871477 4.7644218721286 27.021200527925 17.210084033613 76.983477287535 17.210084033613c49.611574251967 0 75.272733347812 -12.266034047814 76.983477287535 -17.10743939723C493.18181666305 179.19828925606 467.5206575672 166.93225520825 417.90908331523 166.93225520825zM144.19005295955 105.84158912074H79.532485757723l-30.656531399836 33.530581218571v55.599178040998l33.855622567118 33.060126635147h61.458476034549c4.0480478473696 0 7.3305377817131 3.2824899343435 7.3305377817131 7.3305377817131 c0 4.0480478473696 -3.2824899343435 7.3305377817131 -7.3305377817131 7.3305377817131H79.754882469887c-1.9160332124898 0.0042768598493075 -3.758290592579 -0.74203518385485 -5.132231819169 -2.0785538867635l-38.209465893713 -37.268556726866c-1.4274019747064 -1.6679753412299 -2.2100673271297 -3.7925054713734 -2.2068596822427 -5.9876037890305 v-60.83405449655c0 -1.8294268005413 0.68322836092688 -3.5925622734183 1.9160332124898 -4.9440499857995l34.753763135473 -38.012730340645c1.3889102360626 -1.5204236764288 3.3541273368194 -2.3875570108759 5.4145045692233 -2.3864877959136h67.899426967606 c4.0480478473696 0 7.3305377817131 3.2824899343435 7.3305377817131 7.3305377817131C151.52059074127 102.55909918639 148.23917002189 105.84158912074 144.19005295955 105.84158912074zM216.89667039778 175.48597490686h-8.553719698615c-2.6602068262693 0 -4.2768598493075 1.488347227559 -4.2768598493075 2.1384299246538c0 0.65008269709474 1.6166530230382 2.1384299246538 4.2768598493075 2.1384299246538h21.384299246538c4.7237917035602 0 8.553719698615 3.8299279950549 8.553719698615 8.553719698615s-3.8299279950549 8.553719698615 -8.553719698615 8.553719698615h-8.553719698615 c0 4.7237917035602 -3.8299279950549 8.553719698615 -8.553719698615 8.553719698615s-8.553719698615 -3.8299279950549 -8.553719698615 -8.553719698615v-0.38491738643768c-9.4871443607264 -1.3397263477956 -16.674407337488 -9.2465709942029 -17.10743939723 -18.818183336953c0.6126601734133 -11.214995739847 10.165026646842 -19.831799121239 21.384299246538 -19.288637920377h8.553719698615 c2.6602068262693 0 4.2768598493075 -1.488347227559 4.2768598493075 -2.1384299246538c0 -0.65008269709474 -1.6166530230382 -2.1384299246538 -4.2768598493075 -2.1384299246538h-21.384299246538c-4.7237917035602 0 -8.553719698615 -3.8299279950549 -8.553719698615 -8.553719698615s3.8299279950549 -8.553719698615 8.553719698615 -8.553719698615h8.553719698615c0 -4.7237917035602 3.8299279950549 -8.553719698615 8.553719698615 -8.553719698615s8.553719698615 3.8299279950549 8.553719698615 8.553719698615v0.38491738643768 c9.4871443607264 1.3397263477956 16.674407337488 9.2465709942029 17.10743939723 18.818183336953C237.66830947091 167.41233272633 228.11594299748 176.02913610772 216.89667039778 175.48597490686z"/><glyph unicode="&#xE00D;" glyph-name="016-save-money" horiz-adv-x="511" d="M231.86301050142 168.57271854602c0-.902344-.195312-1.828126-.230469-2.742188-.09375-9.160156-1.066406-16.070312-8.816406-16.085938-18.035156 0-4.417969-3.582031-8-8-8-4.417968 0-8 3.582031-8 8 .023438 15.394531 10.320313 28.878906 25.164063 32.953125v-8.3982781725429c0 -4.6379165774589 3.760361595084 -8.3982781725429 8.3982781725429 -8.3982781725429s8.3982781725429 3.760361595084 8.3982781725429 8.3982781725429v7.8897886738147c17.98576618152 3.7644620544017 30.21001749737 20.515911247423 28.319585026641 38.792827886844 -1.8945339798313 18.276916639421 -17.292744465861 32.166061516321 -35.668078427616 32.170161975639 -10.53065348979 0 -19.068356727199 8.5377032374091 -19.068356727199 19.068356727199s8.5377032374091 19.068355677414 19.068356727199 19.068355677414 19.068356727199 -8.5377021876243 19.068356727199 -19.068355677414c0 -4.6379165774589 3.760361595084 -8.3982781725429 8.3982781725429 -8.3982781725429 4.6379155276741 0 8.3982781725429 3.760361595084 8.3982781725429 8.3982781725429-.023438-16.164062-11.347657-30.105468-27.164063-33.441406v7.6437453679785c0 4.6379165774589 -3.760361595084 8.3982781725429 -8.3982781725429 8.3982781725429s-8.3982781725429 -3.760361595084 -8.3982781725429 -8.3982781725429v-8.1563353260244c-17.32965069929 -4.7322334404756 -28.483613897198 -21.557495100355 -26.096993305695 -39.362828474477s17.579794464444 -31.09577339838 35.545056249805 -31.091671889278c10.391228424924 0 18.867420573428 -8.3203652463666 19.056054299461 -18.707493211973.183593 9.894531-7.597657 18.113281-17.488281 18.472656zm0 0 M109.38265180636 214.42288832615c0 -67.260037847201 54.523196573306 -121.78323442051 121.78323547029 -121.78323442051s121.78323547029 54.523196573306 121.78323547029 121.78323442051 -54.523196573306 121.78323442051 -121.78323547029 121.78323442051c-67.227233122875.070312-115.933594 51.96875-116.007813 116.007812zm121.78323547029 104.98667807542c57.984205742068 0 104.98667912521 -47.002472333353 104.98667912521 -104.98667807542s-47.002473383138 -104.98667807542 -104.98667912521 -104.98667807542 -104.98667912521 47.002472333353 -104.98667912521 104.98667807542c0.0625-55.207031 44.800782-99.945312 100.007813-100.007812zm0 0 M394.35000967565 71.935108932188 -65.787879521287 416.91652902936c-9.0830989695665 16.89497366742 -26.507065482088 27.647066657355 -45.682040450258 28.188361930195l-60.731689848799 1.6689929705838c-9.616192273986-.261719-18.148437-2.582032-26.292969-6.789063l-6.1797869109144 3.2026634351886c-31.641169130537 16.493103459447 -69.355506931019 16.452095716915 -100.96387133723.101562l0.367188-13.335937c0.121094-4.417969-3.359375-8.097657-7.777344-8.21875l-66.595721446336 1.833022890926c-4.6379155276741-.121094-8.09375 3.359375-8.214844 7.777344l-4.022807787976 -146.14152169829c0-.121093 4.417969 3.359375 8.097656 7.777344 8.21875l66.595721446336 -1.833022890926h0.21875c4.5518006330776 0 8.2752570445171 3.6209375800025 8.3982781725429 8.1686377537624l0.183594-6.660156 16.480469-8.824219c6.7907952410796 3.653743354114 14.729792576062 4.5230963680686 22.147997984577 2.4235268249329l103.31358359574 -28.996203855244c0.171875.050781.34375.089844.519532.128906 7.113281 1.488281 14.363281 2.234375 21.628906 2.230469 15.390625.007812 30.601562-3.308594 44.589844-9.730469.34375-.15625.675781-.339843.992187-.546875l149.79526505241 96.891853838302c3.731657330075 2.4153248565127 4.9372690037801 7.3156876268635 2.7515845660479 11.18676897202 -11.121157423797 19.732673128065 -35.786999096324 27.249295858915 -56.024060214014 17.067203456613zm-376.9465465095 -112.91747449177 3.5594264910973 129.35316732163 49.803265560568 -1.3696405442626 -3.5594264910973 -129.35726778094zm271.81634186011 2.1979868654702c-18.244110865309 -8.2342493019854 -38.620597047866 -10.506048634314 -58.230249047905 -6.4996437333939l-103.03473451579 28.922390338601c-11.596841148414 3.2764769518318 -24.009726190297 1.9191377855225 -34.618293656048 -3.7849654007752l-8.8411561230481 -4.7363338997934 2.3661172451302 86.004437292603c28.016131091217 18.633679695329 63.94665466194 20.548717021534 93.783506216346 5.0028805520031l6.1797879606992 -3.2026634351886c10.801300601318 -5.5769815989543 22.713897063108 -8.6525234467993 34.8643359121 -9.0051849936055l60.735790308116 -1.6689940203685c17.059002537978.46875 30.050781 12.039063 33.347656 27.960937l-90.466022571767 2.4973392917914c-4.6379165774589-.121094-8.09375 3.363282-8.21875 7.777344-.121094 4.417969 3.363281 8.097656 7.777344 8.21875l99.836171539917 -2.7474841067301h0.222657c4.5477001737599-.003907 7.875-3.453126 7.992187-7.78125.097656-3.476563-.160156-6.957032-.773437-10.378907l67.477375838244 31.883110927271c0.0625-.027344.125-.058594.1875-.089844 9.117188-4.613282 20.140625-3.070313 27.640625 3.871094zm0 0 M239.5641654492 359.8180791883v79.783642639157c0 4.6379165774589 -3.760361595084 8.3982781725429 -8.3982781725429 8.3982781725429s-8.3982781725429 -3.760361595084 -8.3982781725429 -8.3982781725429v-79.783642639157c0 -4.6379165774589 3.760361595084 -8.3982781725429 8.3982781725429 -8.3982781725429s8.3982781725429 3.760361595084 8.3982781725429 8.3982781725429zm0 0 M302.55125174327 359.8180791883v37.792251776443c0 4.6379165774589 -3.760361595084 8.3982781725429 -8.3982781725429 8.3982781725429s-8.3982781725429 -3.760361595084 -8.3982781725429 -8.3982781725429v-37.792251776443c0 -4.6379165774589 3.760361595084 -8.3982781725429 8.3982781725429 -8.3982781725429s8.3982781725429 3.760361595084 8.3982781725429 8.3982781725429zm0 0 M176.57707915513 359.8180791883v37.792251776443c0 4.6379165774589 -3.760361595084 8.3982781725429 -8.3982781725429 8.3982781725429s-8.3982781725429 -3.760361595084 -8.3982781725429 -8.3982781725429v-37.792251776443c0 -4.6379165774589 3.760361595084 -8.3982781725429 8.3982781725429 -8.3982781725429s8.3982781725429 3.760361595084 8.3982781725429 8.3982781725429zm0 0"/><glyph unicode="&#xE00E;" glyph-name="017-coins-1" horiz-adv-x="512" d="M511.90613333333 268.8c-0.8448 14.600533333333 -18.210133333333 26.0096 -52.9408 34.7136c1.1690666666667 2.56 1.8261333333333 5.2224 1.8346666666667 7.9872V371.2h-0.14506666666667C457.6 420.93226666667 253.80693333333 422.4 230.4 422.4 S3.2 420.93226666667 0.14506666666667 371.2H0v-1.1093333333333v0v0l0 -58.615466666667c0.042666666666667 -16.213333333333 20.9664 -28.9024 52.096 -38.3488c-0.42666666666667 -1.4165333333333 -0.68266666666667 -2.8586666666667 -0.768 -4.3264H51.2v-1.1093333333333v0v0l0 -58.513066666667 C17.664 200.54186666667 0.91306666666667 189.29493333333 0.085333333333333 174.93333333333H0v-1.1093333333333v0v0l0 -58.615466666667c0.0256 -11.2896 10.205866666667 -20.864 26.862933333333 -28.842666666667c-0.63146666666667 -1.7322666666667 -1.024 -3.4986666666667 -1.1349333333333 -5.3077333333333H25.6 v-1.1093333333333v0v0l0 -58.615466666667c0.068266666666667 -28.381866666667 63.9744 -46.0032 134.98026666667 -54.229333333333c0.52053333333333 -0.1024 0.9984 -0.31573333333333 1.5530666666667 -0.31573333333333c0.16213333333333 0 0.29866666666667 0.085333333333333 0.4608 0.093866666666667 c13.687466666667 -1.5445333333333 27.5968 -2.7477333333333 41.361066666667 -3.6096c0.29013333333333 -0.034133333333333 0.54613333333333 -0.17066666666667 0.8448 -0.17066666666667c0.16213333333333 0 0.29013333333333 0.085333333333333 0.44373333333333 0.093866666666667 C222.72 -37.8624 239.91466666667 -38.4 256 -38.4c16.085333333333 0 33.28 0.5376 50.756266666667 1.6042666666667c0.1536 -0.0085333333333333 0.29013333333333 -0.093866666666667 0.44373333333333 -0.093866666666667c0.29866666666667 0 0.55466666666667 0.14506666666667 0.8448 0.17066666666667 c13.764266666667 0.86186666666667 27.6736 2.0565333333333 41.361066666667 3.6096C349.568 -33.109333333333 349.70453333333 -33.194666666667 349.86666666667 -33.194666666667c0.55466666666667 0 1.0325333333333 0.21333333333333 1.5530666666667 0.31573333333333 c71.005866666667 8.2261333333333 134.90346666667 25.856 134.98026666667 54.2464V81.066666666667h-0.13653333333333c-0.59733333333333 10.461866666667 -9.5146666666667 19.191466666667 -27.127466666667 26.487466666667c1.0752 2.4661333333333 1.664 5.0261333333333 1.664 7.68V171.008 c30.634666666667 9.4208 51.157333333333 22.024533333333 51.2 38.0928V268.8H511.90613333333zM442.81173333333 112.4608l-2.9098666666667 -2.5514666666667C435.42186666667 105.9584 427.9552 101.97333333333 418.13333333333 98.133333333333v40.686933333333 c10.146133333333 3.5328 18.781866666667 7.4496 25.6 11.741866666667v-35.310933333333C443.73333333333 114.37226666667 443.40906666667 113.4336 442.81173333333 112.4608zM251.9552 72.8064 c-1.2458666666667 -0.034133333333333 -2.5002666666667 -0.0512 -3.7546666666667 -0.0768c-3.0464 -0.059733333333333 -6.1696 -0.0768 -9.2586666666667 -0.1024v42.624c2.3466666666667 0.0256 4.6933333333333 0.059733333333333 7.04 0.1024 c0.45226666666667 0.0085333333333333 0.90453333333333 0.017066666666667 1.3568 0.0256c8.5930666666667 0.16213333333333 17.186133333333 0.42666666666667 25.736533333333 0.8192v-42.606933333333c-1.8261333333333 -0.093866666666667 -3.6608 -0.1792 -5.5125333333333 -0.256 C262.4256 73.105066666667 257.23733333333 72.9344 251.9552 72.8064zM214.69013333333 72.686933333333c-3.9082666666667 0.068266666666667 -7.7994666666667 0.16213333333333 -11.665066666667 0.2816 c-0.47786666666667 0.017066666666667 -0.95573333333333 0.034133333333333 -1.4336 0.0512c-4.6506666666667 0.1536 -9.2672 0.34986666666667 -13.8496 0.57173333333333v42.5984c8.5504 -0.40106666666667 17.143466666667 -0.6656 25.736533333333 -0.8192 c0.45226666666667 -0.0085333333333333 0.90453333333333 -0.017066666666667 1.3482666666667 -0.0256c2.3466666666667 -0.042666666666667 4.6933333333333 -0.0768 7.04 -0.1024v-42.6496c-1.6554666666667 0.017066666666667 -3.3109333333333 0.017066666666667 -4.9578666666667 0.042666666666667 C216.15786666667 72.6528 215.43253333333 72.6784 214.69013333333 72.686933333333zM60.561066666667 92.142933333333C60.279466666667 92.228266666667 60.014933333333 92.305066666667 59.733333333333 92.381866666667v41.224533333333 c7.9701333333333 -2.1504 16.5376 -4.1130666666667 25.6 -5.8965333333333v-41.6512c-7.8336 1.664 -15.061333333333 3.4133333333333 -21.640533333333 5.2053333333333C62.651733333333 91.562666666667 61.576533333333 91.844266666667 60.561066666667 92.142933333333zM240.42666666667 21.4784 c2.3466666666667 -0.042666666666667 4.6933333333333 -0.0768 7.04 -0.1024v-42.658133333333c-11.793066666667 0.11093333333333 -23.176533333333 0.45226666666667 -34.133333333333 0.98986666666667v42.606933333333c8.5504 -0.40106666666667 17.143466666667 -0.6656 25.736533333333 -0.8192 C239.52213333333 21.495466666667 239.9744 21.486933333333 240.42666666667 21.4784zM272.93013333333 21.504c8.5930666666667 0.16213333333333 17.186133333333 0.42666666666667 25.736533333333 0.8192v-42.606933333333 c-10.9568 -0.5376 -22.340266666667 -0.87893333333333 -34.133333333333 -0.98986666666667v42.658133333333c2.3466666666667 0.0256 4.6933333333333 0.059733333333333 7.04 0.1024C272.0256 21.486933333333 272.47786666667 21.495466666667 272.93013333333 21.504zM341.33333333333 25.361066666667v-42.376533333333c-8.2005333333333 -0.86186666666667 -16.733866666667 -1.6213333333333 -25.6 -2.2442666666667v42.555733333333C324.38613333333 23.8592 332.93653333333 24.5504 341.33333333333 25.361066666667zM358.4 27.204266666667 c8.7978666666667 1.0581333333333 17.339733333333 2.2613333333333 25.6 3.6010666666667v-41.898666666667c-8.0384 -1.4165333333333 -16.580266666667 -2.7221333333333 -25.6 -3.9082666666667V27.204266666667zM401.06666666667 33.851733333333c9.0624 1.7834666666667 17.629866666667 3.7461333333333 25.6 5.8965333333333v-41.224533333333 c-7.6032 -2.1930666666667 -16.162133333333 -4.3178666666667 -25.6 -6.3232V33.851733333333zM110.93333333333 33.851733333333v-41.6512c-9.4378666666667 2.0053333333333 -17.9968 4.1301333333333 -25.6 6.3232v41.224533333333 C93.303466666667 37.597866666667 101.87093333333 35.626666666667 110.93333333333 33.851733333333zM128 30.7968c8.2602666666667 -1.3397333333333 16.802133333333 -2.5429333333333 25.6 -3.6010666666667v-42.205866666667c-9.0197333333333 1.1861333333333 -17.5616 2.4917333333333 -25.6 3.9082666666667 V30.7968zM170.66666666667 25.361066666667c8.3968 -0.81066666666667 16.9472 -1.5018666666667 25.6 -2.0736v-42.555733333333c-8.8661333333333 0.62293333333333 -17.399466666667 1.3824 -25.6 2.2442666666667V25.361066666667zM149.49546666667 76.3904 c-0.8704 0.085333333333333 -1.7322666666667 0.1792 -2.5941333333333 0.26453333333333c-0.6144 0.059733333333333 -1.2202666666667 0.13653333333333 -1.8346666666667 0.19626666666667v42.368c8.3968 -0.81066666666667 16.9472 -1.5018666666667 25.6 -2.0736v-42.5216 C163.49866666667 75.136 156.416 75.716266666667 149.49546666667 76.3904zM128 121.07093333333v-42.205866666667c-9.0197333333333 1.1861333333333 -17.5616 2.4917333333333 -25.6 3.9082666666667v41.898666666667 C110.66026666667 123.33226666667 119.20213333333 122.12053333333 128 121.07093333333zM295.81653333333 75.025066666667c-1.8773333333333 -0.14506666666667 -3.7717333333333 -0.29013333333333 -5.6832 -0.42666666666667v42.555733333333 c8.6528 0.57173333333333 17.2032 1.2544 25.6 2.0736v-42.376533333333c-5.2736 -0.55466666666667 -10.666666666667 -1.0752 -16.2048 -1.5274666666667C298.2912 75.2128 297.05386666667 75.118933333333 295.81653333333 75.025066666667zM332.8 78.865066666667v42.205866666667c8.7978666666667 1.0581333333333 17.339733333333 2.2613333333333 25.6 3.6010666666667v-41.898666666667C350.3616 81.3568 341.81973333333 80.042666666667 332.8 78.865066666667zM375.46666666667 127.7184 c9.0624 1.7834666666667 17.629866666667 3.7461333333333 25.6 5.8965333333333v-41.224533333333c-7.6032 -2.1930666666667 -16.162133333333 -4.3178666666667 -25.6 -6.3232V127.7184zM258.77333333333 166.69866666667 c-6.4170666666667 0.16213333333333 -12.689066666667 0.4096 -18.850133333333 0.70826666666667c-0.3328 0.017066666666667 -0.6656 0.034133333333333 -0.98986666666667 0.042666666666667v42.606933333333c8.5504 -0.40106666666667 17.143466666667 -0.6656 25.736533333333 -0.8192 c0.45226666666667 -0.0085333333333333 0.90453333333333 -0.017066666666667 1.3482666666667 -0.0256c2.3466666666667 -0.042666666666667 4.6933333333333 -0.0768 7.04 -0.1024v-42.606933333333c-4.1557333333333 0.042666666666667 -8.3456 0.059733333333333 -12.398933333333 0.1536 C260.03626666667 166.67306666667 259.39626666667 166.6816 258.77333333333 166.69866666667zM59.733333333333 288.64853333333v41.224533333333c7.9701333333333 -2.1504 16.5376 -4.1130666666667 25.6 -5.8965333333333v-41.6512 c-1.0496 0.22186666666667 -2.1333333333333 0.44373333333333 -3.1573333333333 0.6656c-4.5397333333333 0.9984 -8.9685333333333 2.0394666666667 -13.201066666667 3.1402666666667C65.749333333333 286.95893333333 62.685866666667 287.80373333333 59.733333333333 288.64853333333zM214.82666666667 311.61173333333 c2.3466666666667 -0.042666666666667 4.6933333333333 -0.0768 7.04 -0.1024v-42.606933333333c-11.485866666667 0.11093333333333 -22.903466666667 0.4096 -34.133333333333 0.9728v42.5728c8.5504 -0.40106666666667 17.143466666667 -0.6656 25.736533333333 -0.8192 C213.92213333333 311.6288 214.3744 311.62026666667 214.82666666667 311.61173333333zM247.33013333333 311.63733333333c8.5930666666667 0.16213333333333 17.186133333333 0.42666666666667 25.736533333333 0.8192v-42.5728 c-1.4506666666667 -0.068266666666667 -2.8416 -0.17066666666667 -4.3008 -0.23893333333333c-0.11946666666667 -0.0085333333333333 -0.23893333333333 -0.0085333333333333 -0.36693333333333 -0.017066666666667c-5.7258666666667 -0.256 -11.562666666667 -0.44373333333333 -17.476266666667 -0.58026666666667 c-0.9216 -0.0256 -1.8432 -0.034133333333333 -2.7648 -0.059733333333333c-3.0378666666667 -0.059733333333333 -6.144 -0.068266666666667 -9.2245333333333 -0.1024v42.624c2.3466666666667 0.0256 4.6933333333333 0.059733333333333 7.04 0.1024 C246.4256 311.62026666667 246.87786666667 311.6288 247.33013333333 311.63733333333zM441.7792 307.3536l-0.23893333333333 0.0512l-3.1061333333333 -2.4149333333333C433.92853333333 301.48266666667 427.008 297.9328 418.13333333333 294.5024v40.593066666667 c10.146133333333 3.5328 18.781866666667 7.4496 25.6 11.741866666667v-35.310933333333C443.73333333333 310.22933333333 443.05066666667 308.82986666667 441.7792 307.3536zM332.8 275.18293333333v42.154666666667c8.7978666666667 1.0581333333333 17.339733333333 2.2613333333333 25.6 3.6010666666667 v-41.8304C350.3104 277.67466666667 341.79413333333 276.36053333333 332.8 275.18293333333zM375.46666666667 282.3936v41.582933333333c9.0624 1.7834666666667 17.629866666667 3.7461333333333 25.6 5.8965333333333v-41.130666666667 C393.4208 286.5152 384.81066666667 284.3904 375.46666666667 282.3936zM315.73333333333 315.4944v-42.325333333333c-8.2432 -0.8704 -16.776533333333 -1.6298666666667 -25.6 -2.2613333333333v42.513066666667 C298.78613333333 313.99253333333 307.33653333333 314.68373333333 315.73333333333 315.4944zM145.06666666667 273.152v42.3424c8.3968 -0.81066666666667 16.9472 -1.5018666666667 25.6 -2.0736v-42.478933333333 C161.97973333333 271.5648 153.41226666667 272.27306666667 145.06666666667 273.152zM128 317.3376v-42.1632c-1.6896 0.22186666666667 -3.4474666666667 0.40106666666667 -5.12 0.63146666666667c-1.0922666666667 0.1536 -2.1333333333333 0.31573333333333 -3.2085333333333 0.46933333333333 c-4.9322666666667 0.70826666666667 -9.7536 1.4677333333333 -14.481066666667 2.2613333333333C104.2432 278.69866666667 103.33013333333 278.86933333333 102.4 279.03146666667v41.898666666667C110.66026666667 319.59893333333 119.20213333333 318.3872 128 317.3376zM219.7504 168.6272c-1.152 0.085333333333333 -2.3125333333333 0.17066666666667 -3.456 0.256c-5.4613333333333 0.42666666666667 -10.794666666667 0.896 -16 1.4165333333333c-1.1178666666667 0.11093333333333 -2.2357333333333 0.2304 -3.3450666666667 0.34133333333333 C196.71893333333 170.66666666667 196.49706666667 170.7008 196.26666666667 170.71786666667v42.376533333333c8.3968 -0.81066666666667 16.9472 -1.5018666666667 25.6 -2.0736v-42.530133333333C221.17546666667 168.54186666667 220.4416 168.576 219.7504 168.6272zM163.37066666667 175.0016c-3.3792 0.5376 -6.5536 1.1178666666667 -9.7706666666667 1.6810666666667v41.847466666667c8.2602666666667 -1.3397333333333 16.802133333333 -2.5429333333333 25.6 -3.6010666666667v-42.205866666667 c-5.2224 0.6912 -10.333866666667 1.408 -15.240533333333 2.176C163.7632 174.94186666667 163.56693333333 174.976 163.37066666667 175.0016zM136.53333333333 221.58506666667v-41.582933333333 c-9.4293333333333 2.0224 -17.979733333333 4.1728 -25.6 6.4085333333333v41.070933333333C118.90346666667 225.3312 127.47093333333 223.36 136.53333333333 221.58506666667zM93.866666666667 232.69546666667v-40.541866666667 c-13.4144 5.1797333333333 -22.0672 10.4704 -24.8832 15.1808l-0.57173333333333 0.95573333333333C68.360533333333 208.55466666667 68.2752 208.83626666667 68.266666666667 209.1008l0 35.336533333333 C75.0848 240.14506666667 83.720533333333 236.22826666667 93.866666666667 232.69546666667zM298.53013333333 209.23733333333c8.5930666666667 0.16213333333333 17.186133333333 0.42666666666667 25.736533333333 0.8192v-42.564266666667c-11.2128 -0.55466666666667 -22.613333333333 -0.86186666666667 -34.133333333333 -0.98133333333333 v42.5984c2.3466666666667 0.0256 4.6933333333333 0.059733333333333 7.04 0.1024C297.6256 209.22026666667 298.07786666667 209.2288 298.53013333333 209.23733333333zM408.8064 176.49493333333 c-3.7461333333333 -0.64853333333333 -7.5264 -1.2885333333333 -11.409066666667 -1.8773333333333c-2.2272 -0.34133333333333 -4.5056 -0.6656 -6.7925333333333 -0.98986666666667c-2.1589333333333 -0.3072 -4.4032 -0.57173333333333 -6.5962666666667 -0.85333333333333v42.1632 c8.7978666666667 1.0581333333333 17.339733333333 2.2613333333333 25.6 3.6010666666667v-41.898666666667C409.33546666667 176.5888 409.07093333333 176.5376 408.8064 176.49493333333zM351.0272 169.20746666667 c-3.1829333333333 -0.26453333333333 -6.4682666666667 -0.4352 -9.6938666666667 -0.6656v42.478933333333c8.6528 0.57173333333333 17.2032 1.2544 25.6 2.0736v-42.333866666667c-4.9578666666667 -0.52053333333333 -9.9072 -1.0410666666667 -15.0016 -1.4677333333333 C351.62453333333 169.2672 351.3344 169.23306666667 351.0272 169.20746666667zM448.54613333333 185.20746666667c-4.2496 -1.1861333333333 -8.7466666666667 -2.2954666666667 -13.3376 -3.3792 c-2.1248 -0.49493333333333 -4.2922666666667 -0.98986666666667 -6.5109333333333 -1.4677333333333c-0.65706666666667 -0.14506666666667 -1.3568 -0.27306666666667 -2.0224 -0.41813333333333v41.634133333333c9.0624 1.7834666666667 17.629866666667 3.7461333333333 25.6 5.8965333333333v-41.224533333333 C451.0464 185.9072 449.80906666667 185.55733333333 448.54613333333 185.20746666667zM494.83946666667 268.24533333333c-0.78506666666667 -5.7941333333333 -13.917866666667 -13.499733333333 -37.358933333333 -20.744533333333l0 0 c-30.190933333333 -9.3269333333333 -77.431466666667 -17.8688 -137.30133333333 -20.514133333333c-3.0634666666667 -0.128 -6.1184 -0.256 -9.2416 -0.3584c-2.5514666666667 -0.085333333333333 -5.1114666666667 -0.16213333333333 -7.7141333333333 -0.2304 C296.15786666667 226.24426666667 288.98986666667 226.13333333333 281.6 226.13333333333s-14.557866666667 0.11093333333333 -21.623466666667 0.27306666666667c-2.5941333333333 0.059733333333333 -5.1541333333333 0.14506666666667 -7.7141333333333 0.2304 c-3.1317333333333 0.093866666666667 -6.1866666666667 0.2304 -9.2416 0.3584c-59.869866666667 2.6453333333333 -107.11893333333 11.1872 -137.30133333333 20.514133333333l0 0c-23.253333333333 7.1850666666667 -36.360533333333 14.830933333333 -37.333333333333 20.599466666667 c0.042666666666667 0.16213333333333 0.042666666666667 0.29866666666667 0.14506666666667 0.50346666666667c0.58026666666667 -0.14506666666667 1.2288 -0.26453333333333 1.8176 -0.4096c3.3365333333333 -0.7936 6.7584 -1.5616 10.24 -2.2954666666667 c16.955733333333 -3.6522666666667 35.746133333333 -6.6474666666667 55.765333333333 -8.9344c0.068266666666667 0 0.11946666666667 -0.034133333333333 0.1792 -0.034133333333333c0.017066666666667 0 0.034133333333333 0.0085333333333333 0.042666666666667 0.0085333333333333 c13.636266666667 -1.5530666666667 27.784533333333 -2.7733333333333 42.308266666667 -3.6352c0.11093333333333 0 0.2048 -0.059733333333333 0.31573333333333 -0.059733333333333c0.059733333333333 0 0.1024 0.034133333333333 0.16213333333333 0.034133333333333 c10.453333333333 -0.6144 21.0432 -1.0666666666667 31.761066666667 -1.3056C217.68533333333 251.81866666667 224.128 251.73333333333 230.4 251.73333333333c4.48 0 9.0709333333333 0.0512 13.704533333333 0.13653333333333 c62.0032 0.95573333333333 119.46666666667 8.3285333333333 159.45386666667 19.754666666667c1.8432 0.52053333333333 3.6437333333333 1.0581333333333 5.4186666666667 1.5957333333333c1.0837333333333 0.3328 2.1930666666667 0.65706666666667 3.2426666666667 0.98986666666667 c3.0890666666667 0.98986666666667 6.0501333333333 2.0053333333333 8.9088 3.0634666666667c0.49493333333333 0.18773333333333 0.96426666666667 0.37546666666667 1.4592 0.5632c2.4149333333333 0.91306666666667 4.736 1.8602666666667 6.9546666666667 2.8245333333333 c0.64 0.2816 1.2970666666667 0.55466666666667 1.92 0.83626666666667c2.3637333333333 1.0666666666667 4.6506666666667 2.1589333333333 6.7669333333333 3.2938666666667c0.95573333333333 0.50346666666667 1.7834666666667 1.024 2.6794666666667 1.536 c1.024 0.5888 2.048 1.1861333333333 2.9952 1.792c0.5376 0.34133333333333 1.1776 0.6656 1.6896 1.0069333333333C483.79733333333 280.84053333333 493.86666666667 271.77813333333 494.83946666667 268.24533333333zM230.4 405.33333333333 c140.70613333333 0 211.87413333333 -22.152533333333 213.20533333333 -34.8672c-1.0325333333333 -5.7685333333333 -14.1312 -13.3888 -37.3248 -20.5568l0 0c-30.190933333333 -9.3269333333333 -77.431466666667 -17.8688 -137.30133333333 -20.514133333333 c-3.0634666666667 -0.128 -6.1184 -0.256 -9.2416 -0.3584c-2.5514666666667 -0.085333333333333 -5.1114666666667 -0.16213333333333 -7.7141333333333 -0.2304C244.95786666667 328.64426666667 237.78986666667 328.53333333333 230.4 328.53333333333s-14.557866666667 0.11093333333333 -21.623466666667 0.27306666666667 c-2.5941333333333 0.059733333333333 -5.1541333333333 0.14506666666667 -7.7141333333333 0.2304c-3.1317333333333 0.093866666666667 -6.1866666666667 0.2304 -9.2416 0.3584c-59.869866666667 2.6453333333333 -107.11893333333 11.1872 -137.30133333333 20.514133333333l0 0 c-23.202133333333 7.168 -36.292266666667 14.788266666667 -37.3248 20.5568C18.525866666667 383.1808 89.693866666667 405.33333333333 230.4 405.33333333333zM17.066666666667 311.5008l0 35.336533333333c6.8181333333333 -4.2922666666667 15.453866666667 -8.2090666666667 25.6 -11.741866666667v-40.8576 C26.069333333333 300.45866666667 17.083733333333 306.69653333333 17.066666666667 311.5008zM58.402133333333 193.408c0.128 -0.13653333333333 0.32426666666667 -0.256 0.45226666666667 -0.39253333333333c11.682133333333 -11.793066666667 35.874133333333 -21.060266666667 65.988266666667 -27.972266666667 c0.6912 -0.16213333333333 1.4250666666667 -0.31573333333333 2.1248 -0.47786666666667c2.2101333333333 -0.49493333333333 4.4544 -0.98133333333333 6.7242666666667 -1.4506666666667c27.656533333333 -5.888 60.672 -10.146133333333 96.64 -12.253866666667 c0.0256 0 0.042666666666667 -0.0085333333333333 0.059733333333333 -0.0085333333333333c0.017066666666667 0 0.0256 0.0085333333333333 0.034133333333333 0.0085333333333333c11.554133333333 -0.67413333333333 23.3728 -1.1434666666667 35.438933333333 -1.3482666666667 C271.2064 149.4016 276.46293333333 149.33333333333 281.6 149.33333333333c5.888 0 11.9296 0.068266666666667 18.0736 0.21333333333333c11.1616 0.2304 22.161066666667 0.6912 33.006933333333 1.3226666666667 c0.042666666666667 0 0.0768 -0.0256 0.11946666666667 -0.0256c0.0768 0 0.13653333333333 0.042666666666667 0.21333333333333 0.042666666666667c36.061866666667 2.1248 69.896533333333 6.4256 98.5088 12.612266666667 c-6.1952 -3.2426666666667 -14.677333333333 -6.5962666666667 -25.2416 -9.8645333333333l0 0c-31.872 -9.8474666666667 -82.773333333333 -18.816 -147.46453333333 -20.898133333333c-1.92 -0.059733333333333 -3.8144 -0.128 -5.76 -0.1792 c-2.0906666666667 -0.0512 -4.2154666666667 -0.085333333333333 -6.3402666666667 -0.128C241.34826666667 132.34346666667 235.94666666667 132.26666666667 230.4 132.26666666667c-7.3898666666667 0 -14.557866666667 0.11093333333333 -21.623466666667 0.27306666666667 c-2.5941333333333 0.059733333333333 -5.1541333333333 0.14506666666667 -7.7141333333333 0.2304c-3.1317333333333 0.093866666666667 -6.1866666666667 0.2304 -9.2416 0.3584c-59.869866666667 2.6453333333333 -107.11893333333 11.1872 -137.30133333333 20.514133333333l0 0 c-23.466666666667 7.2533333333333 -36.599466666667 14.967466666667 -37.358933333333 20.7616C18.107733333333 177.6128 26.734933333333 185.64266666667 58.402133333333 193.408zM17.066666666667 115.23413333333l0 35.336533333333c6.8181333333333 -4.2922666666667 15.453866666667 -8.2090666666667 25.6 -11.741866666667 v-40.695466666667l-4.8725333333333 1.8944L37.691733333333 99.925333333333C24.2944 105.48053333333 17.083733333333 110.93333333333 17.066666666667 115.23413333333zM42.666666666667 21.367466666667l0 35.336533333333c6.8181333333333 -4.2922666666667 15.453866666667 -8.2090666666667 25.6 -11.741866666667v-40.8576 C51.669333333333 10.325333333333 42.683733333333 16.5632 42.666666666667 21.367466666667zM443.73333333333 4.1045333333333v40.849066666667c10.146133333333 3.5328 18.781866666667 7.4496 25.6 11.741866666667v-35.310933333333 C469.3248 16.580266666667 460.33066666667 10.333866666667 443.73333333333 4.1045333333333zM469.2224 80.4096c-0.93013333333333 -5.7770666666667 -14.037333333333 -13.44 -37.341866666667 -20.642133333333l0 0 c-30.190933333333 -9.3269333333333 -77.431466666667 -17.8688 -137.30133333333 -20.514133333333c-3.0634666666667 -0.128 -6.1184 -0.256 -9.2416 -0.3584c-2.5514666666667 -0.085333333333333 -5.1114666666667 -0.16213333333333 -7.7141333333333 -0.2304 C270.55786666667 38.510933333333 263.38986666667 38.4 256 38.4c-7.3898666666667 0 -14.5664 0.11093333333333 -21.640533333333 0.27306666666667c-2.5685333333333 0.059733333333333 -5.1029333333333 0.14506666666667 -7.6373333333333 0.2304 c-3.1488 0.1024 -6.2208 0.2304 -9.3013333333333 0.3584c-59.869866666667 2.6453333333333 -107.1104 11.1872 -137.30133333333 20.514133333333l0 0c-22.570666666667 6.9717333333333 -35.6096 14.378666666667 -37.248 20.096 c2.5429333333333 -0.88746666666667 5.1797333333333 -1.7493333333333 7.8848 -2.5941333333333c0.27306666666667 -0.085333333333333 0.54613333333333 -0.17066666666667 0.8192 -0.24746666666667c2.304 -0.70826666666667 4.6592 -1.3909333333333 7.0741333333333 -2.0565333333333 c0.91306666666667 -0.256 1.8346666666667 -0.512 2.7648 -0.75946666666667c1.3653333333333 -0.36693333333333 2.7648 -0.7168 4.1642666666667 -1.0752c31.0784 -7.9616 70.749866666667 -13.602133333333 113.57866666667 -16.136533333333 c0.017066666666667 0 0.0256 -0.0085333333333333 0.042666666666667 -0.0085333333333333c0.0085333333333333 0 0.017066666666667 0.0085333333333333 0.0256 0.0085333333333333c13.226666666667 -0.78506666666667 26.734933333333 -1.2714666666667 40.388266666667 -1.4336 C223.24906666667 55.5008 226.85866666667 55.466666666667 230.4 55.466666666667c4.7018666666667 0 9.5146666666667 0.059733333333333 14.3872 0.14506666666667c12.450133333333 0.2048 24.738133333333 0.6656 36.753066666667 1.3824 c0.0256 0 0.042666666666667 -0.017066666666667 0.068266666666667 -0.017066666666667c0.042666666666667 0 0.068266666666667 0.0256 0.11093333333333 0.0256c14.634666666667 0.87893333333333 28.8 2.1333333333333 42.410666666667 3.6949333333333 c0.0512 0 0.093866666666667 -0.0256 0.14506666666667 -0.0256c0.18773333333333 0 0.34133333333333 0.093866666666667 0.52906666666667 0.11093333333333c15.1552 1.7493333333333 29.525333333333 3.8997333333333 42.862933333333 6.4 c2.7477333333333 0.50346666666667 5.4528 1.024 8.1322666666667 1.5616c0.59733333333333 0.11946666666667 1.1946666666667 0.23893333333333 1.792 0.36693333333333c25.198933333333 5.1712 47.010133333333 11.869866666667 61.9776 20.1728 c0.8192 0.44373333333333 1.5872 0.90453333333333 2.3637333333333 1.3568c0.9472 0.5632 1.8517333333333 1.1349333333333 2.7306666666667 1.7152c0.8192 0.52906666666667 1.7664 1.0410666666667 2.5173333333333 1.5786666666667 C464.0256 87.927466666667 468.66773333333 82.551466666667 469.2224 80.4096zM469.33333333333 191.83786666667v40.849066666667c10.146133333333 3.5328 18.781866666667 7.4496 25.6 11.741866666667v-35.310933333333 C494.9248 204.3136 485.93066666667 198.0672 469.33333333333 191.83786666667z"/><glyph unicode="&#xE00F;" glyph-name="018-wallet" horiz-adv-x="512" d="M487.59 148.106h-7.662v69.015c0 10.926 -5.438 20.6 -13.743 26.478v9.397c0 13.631 -11.089 24.72 -24.72 24.72h-5.721 l21.889 32.12c7.337 10.766 4.547 25.495 -6.219 32.833L302.883 443.889c-5.215 3.555 -11.501 4.867 -17.705 3.69 c-6.201 -1.175 -11.574 -4.694 -15.128 -9.91L141.849 249.546h-35.675l8.607 87.13c0.097 0.982 0.735 1.833 1.625 2.168 c11.089 4.181 20.699 11.989 27.059 21.985c0.501 0.787 1.446 1.237 2.424 1.138l55.955 -5.528 c4.012 -0.389 7.581 2.533 7.977 6.543s-2.533 7.581 -6.543 7.977l-55.955 5.528c-6.495 0.636 -12.689 -2.357 -16.169 -7.825 c-4.676 -7.35 -11.742 -13.09 -19.895 -16.164c-6.137 -2.314 -10.351 -7.826 -10.999 -14.387l-8.748 -88.564h-9.303L95.821 387.351 c0.49 4.96 4.917 8.604 9.883 8.107l113.074 -11.17c4.01 -0.387 7.581 2.533 7.977 6.543s-2.533 7.581 -6.543 7.977l-113.074 11.17 C94.174 411.257 82.581 401.752 81.3 388.786l-10.972 -111.07H51.643c-13.63 0 -24.72 -11.089 -24.72 -24.72v-6.41 c-11.151 -5.134 -18.915 -16.406 -18.915 -29.465v-248.695c0 -17.88 14.546 -32.426 32.427 -32.426h407.067 c17.88 0 32.426 14.546 32.426 32.426V37.44h7.662c9.044 0 16.401 7.357 16.401 16.4v77.865 C503.992 140.749 496.634 148.106 487.59 148.106zM441.465 263.124L441.465 263.124c5.586 0.001 10.129 -4.543 10.129 -10.129 v-3.717c-1.342 0.17 -2.705 0.267 -4.092 0.267h-30.955l9.253 13.579H441.465zM282.107 429.453c1.36 1.995 3.415 3.341 5.787 3.791 c0.567 0.107 1.136 0.161 1.701 0.161c1.797 0 3.553 -0.538 5.071 -1.572l148.531 -101.22c4.118 -2.807 5.186 -8.441 2.38 -12.559 l-46.686 -68.506h-11.204l22.889 33.587c3.712 5.447 4.018 12.379 0.796 18.092c-4.282 7.59 -6.018 16.527 -4.888 25.166 c0.84 6.427 -1.988 12.701 -7.38 16.375L322.106 395.24c-5.393 3.675 -12.267 4.012 -17.941 0.879 c-7.625 -4.21 -16.578 -5.863 -25.208 -4.655c-6.4 0.898 -12.891 -1.992 -16.548 -7.357l-91.699 -134.56h-11.204L282.107 429.453zM285.32 305.562c-31.771 0 -57.851 -24.773 -59.976 -56.015h-36.979L274.464 375.89c0.001 0 0.001 0 0.001 0 c0.489 0.719 1.3 1.147 2.133 1.147c0.111 0 0.222 -0.008 0.333 -0.023c11.738 -1.642 23.913 0.604 34.285 6.331 c0.816 0.452 1.864 0.387 2.672 -0.163l76.999 -52.473c0.806 -0.55 1.249 -1.502 1.129 -2.426c-1.537 -11.749 0.825 -23.903 6.648 -34.225 c0.467 -0.829 0.41 -1.891 -0.144 -2.706l-28.488 -41.804h-24.733C343.172 280.789 317.093 305.562 285.32 305.562zM330.668 249.546 h-90.695c2.09 23.189 21.624 41.424 45.347 41.424C309.044 290.971 328.579 272.735 330.668 249.546zM41.514 252.996 c0 5.586 4.543 10.13 10.129 10.13h17.244l-1.341 -13.579H41.514V252.996zM22.599 217.121c0 9.834 8.001 17.835 17.836 17.835 h407.067c9.835 0 17.835 -8.001 17.835 -17.835v-20.244H22.599V217.121zM465.337 -31.574c0 -9.834 -8 -17.835 -17.835 -17.835H40.435 c-9.835 0 -17.836 8.001 -17.836 17.835V-11.33h39.342c4.03 0 7.295 3.266 7.295 7.295c0 4.029 -3.266 7.295 -7.295 7.295H22.599 V182.286h442.738v-34.18h-69.366h-0.001c-21.856 0 -40.788 -12.74 -49.773 -31.181c-0.03 -0.062 -0.064 -0.122 -0.095 -0.184 c-0.076 -0.157 -0.142 -0.32 -0.216 -0.478c-1.07 -2.273 -2 -4.626 -2.757 -7.054c-0.002 -0.007 -0.004 -0.013 -0.006 -0.02 c-1.615 -5.189 -2.486 -10.702 -2.486 -16.416c0 -30.511 24.822 -55.333 55.332 -55.333h0.001h69.366v-34.18H108.655 c-4.03 0 -7.295 -3.266 -7.295 -7.295c0 -4.029 3.266 -7.295 7.295 -7.295h356.682V-31.574zM489.401 53.841 c0 -0.998 -0.812 -1.81 -1.811 -1.81h-91.618c-15.445 0 -28.911 8.639 -35.818 21.338c-0.314 0.577 -0.614 1.163 -0.901 1.756 c-0.573 1.187 -1.09 2.406 -1.547 3.654c-1.602 4.366 -2.476 9.08 -2.476 13.994s0.875 9.628 2.476 13.994 c0.458 1.247 0.975 2.466 1.547 3.654c0.287 0.593 0.587 1.179 0.901 1.756c6.907 12.699 20.373 21.338 35.818 21.338h91.618 c0.998 0 1.811 -0.812 1.811 -1.81V53.841zM397.681 122.373c-16.322 0 -29.6 -13.279 -29.6 -29.6c0 -16.321 13.278 -29.599 29.6 -29.599c16.322 0 29.6 13.278 29.6 29.599 C427.281 109.094 414.003 122.373 397.681 122.373zM397.681 77.765c-8.276 0 -15.009 6.733 -15.009 15.008 c0 8.275 6.733 15.009 15.009 15.009s15.009 -6.733 15.009 -15.009S405.957 77.765 397.681 77.765z"/><glyph unicode="&#xE010;" glyph-name="019-credit-card" horiz-adv-x="512" d="M498.409 272.294L336.283 434.418c-8.752 8.751 -20.423 13.571 -32.865 13.571c-12.441 0 -24.113 -4.818 -32.865 -13.569 L13.571 177.437C4.82 168.685 0 157.015 0 144.573c0 -12.442 4.82 -24.114 13.571 -32.864l19.992 -19.992 c0.002 -0.001 0.003 -0.003 0.005 -0.005c0.002 -0.002 0.004 -0.004 0.006 -0.006l134.36 -134.36H149.33 c-5.89 0 -10.666 -4.775 -10.666 -10.666c0 -5.89 4.776 -10.666 10.666 -10.666h59.189c0.014 0 0.027 -0.001 0.041 -0.001 s0.027 0.001 0.041 0.001l154.053 -0.002c5.89 0 10.666 4.776 10.666 10.666c0 5.891 -4.776 10.666 -10.666 10.666l-113.464 0.002 L498.41 206.566C516.53 224.688 516.53 254.174 498.409 272.294zM483.325 221.65L226.341 -35.334 c-4.713 -4.712 -11.013 -7.31 -17.742 -7.32h-0.081c-6.727 0.011 -13.025 2.608 -17.736 7.32L56.195 99.254L302.99 346.051 c4.165 4.165 4.165 10.919 0 15.084c-4.166 4.165 -10.918 4.165 -15.085 -0.001L41.11 114.337l-12.456 12.456 c-4.721 4.721 -7.321 11.035 -7.321 17.779c0 6.744 2.6 13.059 7.322 17.781L285.637 419.335c4.722 4.721 11.037 7.321 17.781 7.321 c6.744 0 13.059 -2.6 17.781 -7.322l57.703 -57.702l-246.798 -246.8c-4.165 -4.164 -4.165 -10.918 0 -15.085 c2.083 -2.082 4.813 -3.123 7.542 -3.123c2.729 0 5.459 1.042 7.542 3.124l246.798 246.799l89.339 -89.336 C493.128 247.407 493.127 231.454 483.325 221.65zM262.801 139.936c-4.165 4.165 -10.917 4.164 -15.085 0l-83.934 -83.933c-4.165 -4.165 -4.165 -10.918 0 -15.085 c2.083 -2.083 4.813 -3.124 7.542 -3.124c2.729 0 5.459 1.042 7.542 3.124l83.934 83.933 C266.966 129.018 266.966 135.771 262.801 139.936zM228.375 60.259l-34.425 -34.425c-4.165 -4.165 -4.165 -10.919 0 -15.085c2.083 -2.082 4.813 -3.124 7.542 -3.124 c2.731 0 5.459 1.042 7.542 3.124l34.425 34.425c4.165 4.165 4.165 10.919 0 15.085 C239.294 64.425 232.543 64.425 228.375 60.259zM260.054 91.935l-4.525 -4.524c-4.166 -4.165 -4.166 -10.918 -0.001 -15.085c2.082 -2.083 4.813 -3.125 7.542 -3.125 c2.729 0 5.459 1.042 7.541 3.125l4.525 4.524c4.166 4.165 4.166 10.918 0.001 15.084 C270.974 96.099 264.219 96.1 260.054 91.935zM407.073 284.207c-2 2 -4.713 3.124 -7.542 3.124c-2.829 0 -5.541 -1.124 -7.542 -3.124l-45.255 -45.254 c-2 -2.001 -3.124 -4.713 -3.124 -7.542s1.124 -5.542 3.124 -7.542l30.17 -30.167c2.083 -2.083 4.813 -3.124 7.542 -3.124 c2.731 0 5.459 1.042 7.542 3.124l45.253 45.252c4.165 4.165 4.165 10.919 0 15.084L407.073 284.207zM384.445 216.327 l-15.085 15.084l30.17 30.169l15.084 -15.085L384.445 216.327zM320.339 367.814c2.731 0 5.461 1.042 7.543 3.126l4.525 4.527c4.164 4.166 4.163 10.92 -0.003 15.084 c-4.165 4.164 -10.92 4.163 -15.084 -0.003l-4.525 -4.527c-4.164 -4.166 -4.163 -10.92 0.003 -15.084 C314.881 368.854 317.609 367.814 320.339 367.814zM107.215 89.943l-4.525 -4.525c-4.165 -4.164 -4.165 -10.918 0 -15.085c2.083 -2.082 4.813 -3.123 7.542 -3.123 s5.459 1.041 7.542 3.123l4.525 4.525c4.165 4.166 4.165 10.92 0 15.085C118.133 94.109 111.381 94.109 107.215 89.943z"/><glyph unicode="&#xE011;" glyph-name="020-wallet-1" horiz-adv-x="512" d="M461.44453125707 359.81830083893l-156.30616634439 84.640097980953c-14.827462420021 8.031542144178 -35.21522324755 1.8534328025026 -43.246765391728 -12.974029617518l-91.436018256796 -169.89800689607h-111.20596815016c-14.209651485853 0 -25.330248300869 -11.120596815016 -25.330248300869 -25.330248300869v-44.482387260063v-230.44347844449 c0 -14.209651485853 11.120596815016 -25.330248300869 25.330248300869 -25.330248300869h355.24128714633c14.209651485853 0 25.330248300869 11.120596815016 25.330248300869 25.330248300869v64.252337153424h10.502785880848c5.5602984075079 0 9.8849749466806 4.3246765391728 9.8849749466806 9.8849749466806v73.519501165937c0 5.5602984075079 -4.3246765391728 9.8849749466806 -9.8849749466806 9.8849749466806h-10.502785880848v72.283879297602 c0 11.738407749183 -8.6493530783455 22.241193630031 -19.769949893361 24.712437366702l54.367362206743 100.70318226931C482.45010301877 332.01680880139 476.88980461126 351.16894776059 461.44453125707 359.81830083893zM350.23856310691 397.50476782315l-97.614127598471 -181.01860371109h-27.801492037539l104.41004787431 192.1392005261 L350.23856310691 397.50476782315zM279.80811661181 422.21720518985c3.0890546708377 5.5602984075079 10.502785880848 8.031542144178 16.063084288356 4.9424874733403l15.445273354188 -8.6493530783455l-108.73472441349 -202.02417547279h-33.979601379215L279.80811661181 422.21720518985zM53.071503772327 236.87392493959 c0 1.8534328025026 2.4712437366702 4.9424874733403 5.5602984075079 4.9424874733403h100.70318226931l-13.591840551686 -24.712437366702h-87.111341717623c-1.8534328025026 0 -3.7068656050052 0 -5.5602984075079 -0.61781093416754V236.87392493959zM419.43338773368 -38.669751699131c0 -3.0890546708377 -2.4712437366702 -5.5602984075079 -5.5602984075079 -5.5602984075079h-355.24128714633 c-3.0890546708377 0 -5.5602984075079 2.4712437366702 -5.5602984075079 5.5602984075079v229.82566751032c0 3.0890546708377 2.4712437366702 5.5602984075079 5.5602984075079 5.5602984075079h93.289451059298h39.539899786723h72.283879297602h139.0074601877h10.502785880848c3.0890546708377 0 5.5602984075079 -2.4712437366702 5.5602984075079 -5.5602984075079v-72.283879297602h-37.68646698422v0 c-16.680895222524 0 -29.654924840042 -13.591840551686 -29.654924840042 -29.654924840042v-33.979601379215c0 -16.680895222524 13.591840551686 -29.654924840042 29.654924840042 -29.654924840042h38.304277918387V-38.669751699131zM439.20333762704 99.10208662023h0.61781093416754v-53.749551272576h-0.61781093416754h-58.074227811749 c-5.5602984075079 0 -9.8849749466806 4.3246765391728 -9.8849749466806 9.8849749466806v33.979601379215c0 5.5602984075079 4.3246765391728 9.8849749466806 9.8849749466806 9.8849749466806H439.20333762704zM456.50204378373 326.45651039388l-59.309849680084 -109.97034628182h-122.32656496517l92.671640125131 171.13362876441l84.022287046785 -45.718009128398 C457.73766565207 339.4305400114 459.59109845457 332.01680880139 456.50204378373 326.45651039388zM418.81557679951 335.7236744064l-4.9424874733403 2.4712437366702c-12.356218683351 6.7959202758429 -29.037113905874 1.8534328025026 -35.833034181717 -10.502785880848l-6.1781093416754 -11.738407749183c-3.0890546708377 -6.1781093416754 -4.3246765391728 -13.591840551686 -1.8534328025026 -20.387760827529c1.8534328025026 -6.7959202758429 6.7959202758429 -12.356218683351 12.974029617518 -15.445273354188l4.9424874733403 -2.4712437366702 c3.7068656050052 -1.8534328025026 8.031542144178 -3.0890546708377 12.356218683351 -3.0890546708377c9.8849749466806 0 18.534328025026 5.5602984075079 23.476815498366 13.591840551686l6.1781093416754 11.738407749183C436.1142829562 312.8646698422 431.17179548286 328.92775413055 418.81557679951 335.7236744064zM412.01965652367 309.15780423719l-6.1781093416754 -11.738407749183 c-1.8534328025026 -3.0890546708377 -6.1781093416754 -4.3246765391728 -9.2671640125131 -2.4712437366702l-4.9424874733403 3.0890546708377c-1.2356218683351 0.61781093416754 -2.4712437366702 2.4712437366702 -3.0890546708377 3.7068656050052c-0.61781093416754 1.8534328025026 -0.61781093416754 3.7068656050052 0.61781093416754 4.9424874733403l6.1781093416754 11.738407749183c1.2356218683351 1.8534328025026 3.7068656050052 3.7068656050052 6.1781093416754 3.7068656050052c1.2356218683351 0 1.8534328025026 0 3.0890546708377 -0.61781093416754 l4.9424874733403 -2.4712437366702C412.01965652367 316.5715354472 413.255278392 312.8646698422 412.01965652367 309.15780423719z"/><glyph unicode="&#xE012;" glyph-name="022-sale" horiz-adv-x="512" d="M396.73822136499 410.22114766419L364.15897421966 389.12020863329L361.1882679996 372.27770684487L393.77215144024 393.37864587578ZM390.64497025346 375.69581556238L358.0773138464 354.60067190061L354.64993253828 335.22443472513L387.23033875744 356.32653282986ZM402.53474957667 443.06582271604L374.55123015765 448L367.28267818496 406.80535709435L399.85265273967 427.90165982994ZM309.76363949182 267.2586636241c-9.709561453551 0 -17.587786259542 -7.8712703630255 -17.587786259542 -17.586627185714c0 -9.7234703394819 7.878224805991 -17.594740702507 17.587786259542 -17.594740702507c0.4508797189246 0 0.88321425660808 0.10431664448127 1.3155487942916 0.1298162686878 c4.2433692827325 -31.259062055726 -28.553783742179 -59.837186348284 -59.616962321045 -61.521320619742c-34.985484411363 -1.888131265111 -49.49477058488 31.99623301006 -52.392455153804 61.891065170737c7.7762263091648 1.8162686878017 13.575072668496 8.7625981364266 13.575072668496 17.087066366032 c0 9.7107205273786 -7.8735885106807 17.587786259542 -17.587786259542 17.587786259542c-9.709561453551 0 -17.586627185714 -7.8712703630255 -17.586627185714 -17.587786259542c0 -5.3850570028886 2.4665091050682 -10.138418769752 6.2775438501173 -13.367598453361 c2.5731438972046 -41.129734771309 26.011934838318 -86.658154718245 74.240996803492 -80.125614626063c40.370541414251 5.4673512446461 76.458305035632 44.375141488504 66.672244709462 84.220622458866c1.688770566769 2.7029601658924 2.6948466490995 5.857959124537 2.6948466490995 9.2725906205573 C327.35258482519 259.38159789193 319.4743600192 267.2586636241 309.76363949182 267.2586636241zM443.2367861056 -46.65909646573c-12.93410484185 50.909999728342 -51.205563554372 225.66356071102 -0.68153541061096 336.8210589226c0.053317396068204 0.10779386596398 0.060271839033622 0.22486032254851 0.10779386596398 0.3361314099952 c0.27238234947887 0.65139949109415 0.47174304782085 1.306276203671 0.61778635009463 1.987811614282c0.037090362482229 0.1680657049976 0.092725906205573 0.33033604085735 0.12402089954995 0.4926063767171c0.13908885930836 0.84380574647071 0.18313366475601 1.7026794526998 0.13908885930836 2.5580759374462 c-0.0057953691378483 0.1564749667219 -0.057953691378483 0.31410900727138 -0.069544429654179 0.46362953102786c-0.075339798792028 0.68733077974881 -0.20167884599712 1.3700252641873 -0.41147120878723 2.0457653056604c-0.070703503481749 0.24108735613449 -0.15763404054947 0.47174304782085 -0.24804179909991 0.70703503481749 c-0.2213831010658 0.58996857823296 -0.49956081968252 1.1637101228799 -0.82410149140203 1.7212246339409c-0.074180724964458 0.13677071165322 -0.11358923510183 0.2978819736854 -0.21095143661768 0.44740249744189c-0.047522026930356 0.085771463240155 -0.1298162686878 0.13677071165322 -0.17733829561816 0.22254217489337 c-0.092725906205573 0.1298162686878 -0.14604330227378 0.27238234947887 -0.23876920847935 0.40219861816667l-36.335805420481 48.852643684406c-1.2865719486023 1.7409288890096 -3.0692274954045 2.9753425153713 -5.0384939284453 3.7264223556364c4.1877337390092 -10.151168581855 3.485334999502 -22.489509476334 -2.1153097353146 -31.896552660889 l12.003368558311 -16.144739344218H359.19697916384l21.646862803691 14.023634239765l3.2743835628843 18.528954207529l-32.574610850018 -21.102098104733l-2.0295382720745 -11.451649416388h-34.137042369582l16.681390526383 26.306339590521l3.7982849329458 6.1674318364981l-25.730279898219 16.378872257387 l-61.924678311737 39.265944056577l-18.643702516458 -29.401066710132l18.091983374535 -58.724475473817h-9.3572030099698L200.38995590086 429.11868734889L101.07935128087 398.52261552253l13.416279554119 -43.567267030688h-10.409642045403 c-4.2283013229741 0 -8.1065623500222 -2.362192460587 -10.032943051443 -6.1303414740159l-25.051062635263 -48.852643684406c-0.11127108744669 -0.21674680575553 -0.15531589289433 -0.44044805447647 -0.26079161120317 -0.66299022936984c-0.1298162686878 -0.28513216158214 -0.24108735613449 -0.57142339699184 -0.34076770530548 -0.87510073981509 c-0.18429273858358 -0.54012840364746 -0.3210634502368 -1.0848931026052 -0.4126302826148 -1.6400894660111c-0.049840174585495 -0.25731438972046 -0.10779386596398 -0.51115155795822 -0.13677071165322 -0.77657946447167c-0.069544429654179 -0.73601188050673 -0.082294241757446 -1.4627511703929 -0.012749812103266 -2.1883313864515 c0.0081135167929876 -0.097362201515851 -0.0057953691378483 -0.19008810772142 0 -0.28860938306484c0.099680349170991 -0.81830612226418 0.30251826899568 -1.6296578015629 0.57374154464698 -2.413191709c0.026658698034102 -0.06722628199904 0.026658698034102 -0.13097534251537 0.045203879275217 -0.19704255068684 c53.3718725381 -145.2203598562 15.802812565085 -296.06222777612 3.0124328778535 -338.83552923492c-0.73137558519645 -2.4595546621028 -2.0944464064184 -7.0529642407614 1.3514800829462 -11.618556047558c2.1257413997628 -2.8223447701321 5.4708284661288 -4.4775021959016 8.9967310495957 -4.4775021959016h0.14836144992892 c3.0576367571288 0.038249436309799 5.2923310966831 1.0883703240879 6.9544429654179 2.5603940851014h337.59532023942c1.605317251184 -1.1834143779486 3.6997636576023 -2.0075158693506 6.4502458504251 -2.0075158693506c3.4841759256744 0 6.7701502268344 1.6087944726667 8.9074823648728 4.3569585178343 C445.27675604213 -54.714659567339 444.23938496645 -50.617333586881 443.2367861056 -46.65909646573zM110.98363713745 332.40324902882h10.464118515299l8.1019260547119 -26.305180516693H97.480427046263L110.98363713745 332.40324902882zM97.415518911919 -38.889824599531 c14.892939610443 56.365760234712 40.727536153143 189.84933851294 -2.5464851991705 322.43115735333h320.61141144404c-40.298678836942 -108.76285168383 -11.97555078645 -260.37086740377 2.6403701792037 -322.43115735333H97.415518911919z"/></font></defs></svg>
