<?xml version="1.0" encoding="UTF-8"?>
<glyph name="cent" format="1">
  <advance width="444"/>
  <unicode hex="00A2"/>
  <outline>
    <contour>
      <point x="227" y="-60" type="line" smooth="yes"/>
      <point x="227" y="-81"/>
      <point x="248" y="-81" type="qcurve" smooth="yes"/>
      <point x="269" y="-81"/>
      <point x="269" y="-60" type="qcurve" smooth="yes"/>
      <point x="269" y="-6" type="line"/>
      <point x="337" y="-6"/>
      <point x="415" y="36"/>
      <point x="415" y="63" type="qcurve" smooth="yes"/>
      <point x="415" y="100"/>
      <point x="381" y="100" type="qcurve" smooth="yes"/>
      <point x="370" y="100"/>
      <point x="350" y="90" type="qcurve" smooth="yes"/>
      <point x="331" y="80"/>
      <point x="297" y="70"/>
      <point x="269" y="70" type="qcurve"/>
      <point x="269" y="462" type="line"/>
      <point x="295" y="462"/>
      <point x="327" y="453"/>
      <point x="345" y="445" type="qcurve" smooth="yes"/>
      <point x="368" y="434"/>
      <point x="382" y="434" type="qcurve" smooth="yes"/>
      <point x="397" y="434"/>
      <point x="418" y="457"/>
      <point x="418" y="471" type="qcurve" smooth="yes"/>
      <point x="418" y="499"/>
      <point x="338" y="538"/>
      <point x="269" y="538" type="qcurve"/>
      <point x="269" y="592" type="line" smooth="yes"/>
      <point x="269" y="613"/>
      <point x="248" y="613" type="qcurve" smooth="yes"/>
      <point x="227" y="613"/>
      <point x="227" y="592" type="qcurve" smooth="yes"/>
      <point x="227" y="534" type="line"/>
      <point x="134" y="518"/>
      <point x="35" y="367"/>
      <point x="35" y="266" type="qcurve" smooth="yes"/>
      <point x="35" y="165"/>
      <point x="134" y="15"/>
      <point x="227" y="-1" type="qcurve"/>
    </contour>
    <contour>
      <point x="227" y="79" type="line"/>
      <point x="175" y="97"/>
      <point x="123" y="203"/>
      <point x="123" y="266" type="qcurve" smooth="yes"/>
      <point x="123" y="329"/>
      <point x="175" y="435"/>
      <point x="227" y="454" type="qcurve"/>
    </contour>
  </outline>
</glyph>
