<?xml version="1.0" encoding="UTF-8"?>
<glyph name="O" format="1">
  <advance width="686"/>
  <unicode hex="004F"/>
  <outline>
    <contour>
      <point x="125" y="356" type="qcurve" smooth="yes"/>
      <point x="125" y="409"/>
      <point x="149" y="511"/>
      <point x="201" y="593"/>
      <point x="286" y="642"/>
      <point x="343" y="642" type="qcurve" smooth="yes"/>
      <point x="401" y="642"/>
      <point x="485" y="593"/>
      <point x="537" y="511"/>
      <point x="561" y="409"/>
      <point x="561" y="356" type="qcurve" smooth="yes"/>
      <point x="561" y="303"/>
      <point x="537" y="201"/>
      <point x="485" y="119"/>
      <point x="401" y="70"/>
      <point x="343" y="70" type="qcurve" smooth="yes"/>
      <point x="286" y="70"/>
      <point x="201" y="119"/>
      <point x="149" y="201"/>
      <point x="125" y="303"/>
    </contour>
    <contour>
      <point x="31" y="356" type="qcurve" smooth="yes"/>
      <point x="31" y="286"/>
      <point x="72" y="156"/>
      <point x="152" y="53"/>
      <point x="269" y="-6"/>
      <point x="343" y="-6" type="qcurve" smooth="yes"/>
      <point x="417" y="-6"/>
      <point x="534" y="53"/>
      <point x="614" y="156"/>
      <point x="655" y="286"/>
      <point x="655" y="356" type="qcurve" smooth="yes"/>
      <point x="655" y="426"/>
      <point x="614" y="556"/>
      <point x="534" y="659"/>
      <point x="417" y="718"/>
      <point x="343" y="718" type="qcurve" smooth="yes"/>
      <point x="269" y="718"/>
      <point x="152" y="659"/>
      <point x="72" y="556"/>
      <point x="31" y="426"/>
    </contour>
  </outline>
</glyph>
