<?xml version="1.0" encoding="utf-8"?>
<!-- Generator: Adobe Illustrator 23.0.3, SVG Export Plug-In . SVG Version: 6.00 Build 0)  -->
<svg version="1.1" id="Layer_1" xmlns="http://www.w3.org/2000/svg" xmlns:xlink="http://www.w3.org/1999/xlink" x="0px" y="0px"
	 viewBox="0 0 39.8 57.7" style="enable-background:new 0 0 39.8 57.7;" xml:space="preserve">
<style type="text/css">
	.st0{fill:none;stroke:#FFFFFF;stroke-width:3;stroke-miterlimit:10;}
	.st1{fill:#FFFFFF;}
	.st2{fill:#FFFFFF;stroke:#FFFFFF;stroke-miterlimit:10;}
</style>
<g>
	<path class="st0" d="M34.1,55.8H5.6c-2.1,0-3.9-1.7-3.9-3.9V5.6c0-2.1,1.7-3.9,3.9-3.9h28.5c2.1,0,3.9,1.7,3.9,3.9v46.4
		C38,54.1,36.3,55.8,34.1,55.8z"/>
	<path class="st1" d="M29.6,7.6H11.4c-0.7,0-1.3-0.4-1.7-1l-3-5h27.7l-3,5C30.9,7.3,30.3,7.6,29.6,7.6z"/>
	<path class="st2" d="M10,33.9c-0.4-0.4-0.4-1.1,0-1.5c0.4-0.4,1.1-0.4,1.5,0L19,40V17c0-0.6,0.5-1.1,1-1.1c0.6,0,1.1,0.5,1.1,1.1
		v23l7.5-7.5c0.4-0.4,1.1-0.4,1.5,0c0.4,0.4,0.4,1.1,0,1.5l-9.3,9.3c-0.4,0.4-1.1,0.4-1.5,0L10,33.9z"/>
</g>
</svg>
