<?xml version="1.0" encoding="utf-8"?>
<!-- Generator: Adobe Illustrator 23.0.3, SVG Export Plug-In . SVG Version: 6.00 Build 0)  -->
<svg version="1.1" id="Capa_1" xmlns="http://www.w3.org/2000/svg" xmlns:xlink="http://www.w3.org/1999/xlink" x="0px" y="0px"
	 viewBox="0 0 340.1 201.9" style="enable-background:new 0 0 340.1 201.9;" xml:space="preserve">
<style type="text/css">
	.st0{fill:#5B3624;}
</style>
<g>
	<g>
		<path class="st0" d="M333.6,89.8L247.8,4c-5.3-5.3-13.8-5.3-19.1,0c-5.3,5.3-5.3,13.8,0,19.1l62.8,62.8H17.6
			c-7.5,0-13.5,6-13.5,13.5s6,13.5,13.5,13.5h273.9l-62.8,62.8c-5.3,5.3-5.3,13.8,0,19.1c2.6,2.6,6.1,4,9.5,4s6.9-1.3,9.5-4
			l85.8-85.8C338.9,103.6,338.9,95,333.6,89.8z"/>
	</g>
</g>
</svg>
